%TF.GenerationSoftware,KiCad,Pcbnew,(5.1.10)-1*%
%TF.CreationDate,2022-09-28T02:02:38-05:00*%
%TF.ProjectId,dashboard_pcb,64617368-626f-4617-9264-5f7063622e6b,rev?*%
%TF.SameCoordinates,Original*%
%TF.FileFunction,Soldermask,Bot*%
%TF.FilePolarity,Negative*%
%FSLAX46Y46*%
G04 Gerber Fmt 4.6, Leading zero omitted, Abs format (unit mm)*
G04 Created by KiCad (PCBNEW (5.1.10)-1) date 2022-09-28 02:02:38*
%MOMM*%
%LPD*%
G01*
G04 APERTURE LIST*
%ADD10C,3.200000*%
%ADD11O,1.700000X1.700000*%
%ADD12R,1.700000X1.700000*%
%ADD13C,1.800000*%
%ADD14R,1.800000X1.800000*%
%ADD15C,1.300000*%
G04 APERTURE END LIST*
D10*
%TO.C,H4*%
X167005000Y-142240000D03*
%TD*%
%TO.C,H3*%
X167640000Y-36195000D03*
%TD*%
%TO.C,H2*%
X73025000Y-142240000D03*
%TD*%
%TO.C,H1*%
X73025000Y-36195000D03*
%TD*%
D11*
%TO.C,J4*%
X155575000Y-42545000D03*
X155575000Y-45085000D03*
X155575000Y-47625000D03*
X155575000Y-50165000D03*
X155575000Y-52705000D03*
D12*
X155575000Y-55245000D03*
%TD*%
D11*
%TO.C,J3*%
X103505000Y-67945000D03*
X103505000Y-65405000D03*
X106045000Y-67945000D03*
X106045000Y-65405000D03*
X108585000Y-67945000D03*
X108585000Y-65405000D03*
X111125000Y-67945000D03*
X111125000Y-65405000D03*
X113665000Y-67945000D03*
X113665000Y-65405000D03*
X116205000Y-67945000D03*
X116205000Y-65405000D03*
X118745000Y-67945000D03*
X118745000Y-65405000D03*
X121285000Y-67945000D03*
X121285000Y-65405000D03*
X123825000Y-67945000D03*
X123825000Y-65405000D03*
X126365000Y-67945000D03*
X126365000Y-65405000D03*
X128905000Y-67945000D03*
X128905000Y-65405000D03*
X131445000Y-67945000D03*
X131445000Y-65405000D03*
X133985000Y-67945000D03*
D12*
X133985000Y-65405000D03*
%TD*%
D11*
%TO.C,J2*%
X93345000Y-30480000D03*
X93345000Y-27940000D03*
X95885000Y-30480000D03*
X95885000Y-27940000D03*
X98425000Y-30480000D03*
X98425000Y-27940000D03*
X100965000Y-30480000D03*
X100965000Y-27940000D03*
X103505000Y-30480000D03*
X103505000Y-27940000D03*
X106045000Y-30480000D03*
X106045000Y-27940000D03*
X108585000Y-30480000D03*
X108585000Y-27940000D03*
X111125000Y-30480000D03*
X111125000Y-27940000D03*
X113665000Y-30480000D03*
X113665000Y-27940000D03*
X116205000Y-30480000D03*
X116205000Y-27940000D03*
X118745000Y-30480000D03*
X118745000Y-27940000D03*
X121285000Y-30480000D03*
X121285000Y-27940000D03*
X123825000Y-30480000D03*
X123825000Y-27940000D03*
X126365000Y-30480000D03*
X126365000Y-27940000D03*
X128905000Y-30480000D03*
X128905000Y-27940000D03*
X131445000Y-30480000D03*
X131445000Y-27940000D03*
X133985000Y-30480000D03*
X133985000Y-27940000D03*
X136525000Y-30480000D03*
X136525000Y-27940000D03*
X139065000Y-30480000D03*
X139065000Y-27940000D03*
X141605000Y-30480000D03*
D12*
X141605000Y-27940000D03*
%TD*%
D11*
%TO.C,J1*%
X78740000Y-95885000D03*
X78740000Y-98425000D03*
X78740000Y-100965000D03*
D12*
X78740000Y-103505000D03*
%TD*%
D13*
%TO.C,D16*%
X132080000Y-120015000D03*
D14*
X129540000Y-120015000D03*
%TD*%
D13*
%TO.C,D15*%
X124460000Y-113030000D03*
D14*
X121920000Y-113030000D03*
%TD*%
D13*
%TO.C,D14*%
X125095000Y-125095000D03*
D14*
X122555000Y-125095000D03*
%TD*%
D13*
%TO.C,D13*%
X117475000Y-116205000D03*
D14*
X114935000Y-116205000D03*
%TD*%
D13*
%TO.C,D12*%
X117475000Y-127635000D03*
D14*
X114935000Y-127635000D03*
%TD*%
D13*
%TO.C,D11*%
X110490000Y-113030000D03*
D14*
X107950000Y-113030000D03*
%TD*%
D13*
%TO.C,D10*%
X109855000Y-125095000D03*
D14*
X107315000Y-125095000D03*
%TD*%
D13*
%TO.C,D9*%
X102870000Y-120015000D03*
D14*
X100330000Y-120015000D03*
%TD*%
D13*
%TO.C,D8*%
X127635000Y-85090000D03*
D14*
X125095000Y-85090000D03*
%TD*%
D13*
%TO.C,D7*%
X139700000Y-125730000D03*
D14*
X137160000Y-125730000D03*
%TD*%
D13*
%TO.C,D6*%
X132080000Y-132715000D03*
D14*
X129540000Y-132715000D03*
%TD*%
D13*
%TO.C,D5*%
X122555000Y-135890000D03*
D14*
X120015000Y-135890000D03*
%TD*%
D13*
%TO.C,D4*%
X112395000Y-135890000D03*
D14*
X109855000Y-135890000D03*
%TD*%
D13*
%TO.C,D3*%
X102870000Y-132080000D03*
D14*
X100330000Y-132080000D03*
%TD*%
D13*
%TO.C,D2*%
X95250000Y-125095000D03*
D14*
X92710000Y-125095000D03*
%TD*%
D13*
%TO.C,D1*%
X106680000Y-85090000D03*
D14*
X104140000Y-85090000D03*
%TD*%
D15*
%TO.C,BZ1*%
X116205000Y-102215000D03*
X116205000Y-94615000D03*
%TD*%
M02*
