M48
; DRILL file {KiCad (5.1.10)-1} date 09/28/22 02:02:24
; FORMAT={-:-/ absolute / inch / decimal}
; #@! TF.CreationDate,2022-09-28T02:02:24-05:00
; #@! TF.GenerationSoftware,Kicad,Pcbnew,(5.1.10)-1
; #@! TF.FileFunction,NonPlated,1,2,NPTH
FMAT,2
INCH
T1C0.1260
%
G90
G05
T1
X2.875Y-1.425
X2.875Y-5.6
X6.575Y-5.6
X6.6Y-1.425
T0
M30
