%TF.GenerationSoftware,KiCad,Pcbnew,(5.1.10)-1*%
%TF.CreationDate,2022-09-28T01:59:18-05:00*%
%TF.ProjectId,dashboard_pcb,64617368-626f-4617-9264-5f7063622e6b,rev?*%
%TF.SameCoordinates,Original*%
%TF.FileFunction,Profile,NP*%
%FSLAX46Y46*%
G04 Gerber Fmt 4.6, Leading zero omitted, Abs format (unit mm)*
G04 Created by KiCad (PCBNEW (5.1.10)-1) date 2022-09-28 01:59:18*
%MOMM*%
%LPD*%
G01*
G04 APERTURE LIST*
%TA.AperFunction,Profile*%
%ADD10C,0.100000*%
%TD*%
G04 APERTURE END LIST*
D10*
X170815000Y-22860000D02*
X170815000Y-147320000D01*
X69215000Y-22860000D02*
X170815000Y-22860000D01*
X69215000Y-147320000D02*
X69215000Y-22860000D01*
X170815000Y-147320000D02*
X69215000Y-147320000D01*
M02*
