EESchema Schematic File Version 4
EELAYER 30 0
EELAYER END
$Descr A4 11693 8268
encoding utf-8
Sheet 1 1
Title ""
Date ""
Rev ""
Comp ""
Comment1 ""
Comment2 ""
Comment3 ""
Comment4 ""
$EndDescr
$Comp
L MCU_ST_STM32F1:STM32F103CBTx U2
U 1 1 632A595F
P 4400 3900
F 0 "U2" H 3600 2500 50  0000 C CNN
F 1 "STM32F103CBTx" H 3600 2400 50  0000 C CNN
F 2 "Package_QFP:LQFP-48_7x7mm_P0.5mm" H 3800 2500 50  0001 R CNN
F 3 "http://www.st.com/st-web-ui/static/active/en/resource/technical/document/datasheet/CD00161566.pdf" H 4400 3900 50  0001 C CNN
	1    4400 3900
	1    0    0    -1  
$EndComp
$Comp
L power:GND #PWR0101
U 1 1 632C4FF4
P 1700 1800
F 0 "#PWR0101" H 1700 1550 50  0001 C CNN
F 1 "GND" H 1705 1627 50  0000 C CNN
F 2 "" H 1700 1800 50  0001 C CNN
F 3 "" H 1700 1800 50  0001 C CNN
	1    1700 1800
	1    0    0    -1  
$EndComp
$Comp
L Device:C C1
U 1 1 632C62C9
P 1250 1400
F 0 "C1" H 1365 1446 50  0000 L CNN
F 1 "0.1uF" H 1365 1355 50  0000 L CNN
F 2 "Capacitor_SMD:C_0805_2012Metric_Pad1.18x1.45mm_HandSolder" H 1288 1250 50  0001 C CNN
F 3 "~" H 1250 1400 50  0001 C CNN
	1    1250 1400
	1    0    0    -1  
$EndComp
$Comp
L Device:C C2
U 1 1 632C6F96
P 2200 1400
F 0 "C2" H 2315 1446 50  0000 L CNN
F 1 "10uF" H 2315 1355 50  0000 L CNN
F 2 "Capacitor_SMD:C_0805_2012Metric_Pad1.18x1.45mm_HandSolder" H 2238 1250 50  0001 C CNN
F 3 "~" H 2200 1400 50  0001 C CNN
	1    2200 1400
	1    0    0    -1  
$EndComp
Wire Wire Line
	2000 1250 2200 1250
Wire Wire Line
	1250 1250 1400 1250
Wire Wire Line
	1100 1250 1250 1250
Connection ~ 1250 1250
Wire Wire Line
	1700 1550 1700 1700
Wire Wire Line
	1700 1700 2200 1700
Wire Wire Line
	2200 1700 2200 1550
Wire Wire Line
	1250 1550 1250 1700
Wire Wire Line
	1250 1700 1700 1700
Connection ~ 1700 1700
Wire Wire Line
	1700 1800 1700 1700
Wire Wire Line
	2200 1250 2550 1250
Connection ~ 2200 1250
Text Label 2550 1250 0    50   ~ 0
3.3V
$Comp
L Device:C C3
U 1 1 632CA7D8
P 3750 6100
F 0 "C3" H 3865 6146 50  0000 L CNN
F 1 "0.1uF" H 3865 6055 50  0000 L CNN
F 2 "Capacitor_SMD:C_0805_2012Metric_Pad1.18x1.45mm_HandSolder" H 3788 5950 50  0001 C CNN
F 3 "~" H 3750 6100 50  0001 C CNN
	1    3750 6100
	1    0    0    -1  
$EndComp
$Comp
L Device:C C4
U 1 1 632CADC8
P 4150 6100
F 0 "C4" H 4265 6146 50  0000 L CNN
F 1 "0.1 uF" H 4265 6055 50  0000 L CNN
F 2 "Capacitor_SMD:C_0805_2012Metric_Pad1.18x1.45mm_HandSolder" H 4188 5950 50  0001 C CNN
F 3 "~" H 4150 6100 50  0001 C CNN
	1    4150 6100
	1    0    0    -1  
$EndComp
$Comp
L Device:C C5
U 1 1 632CB6F7
P 4550 6100
F 0 "C5" H 4665 6146 50  0000 L CNN
F 1 "0.1uF" H 4665 6055 50  0000 L CNN
F 2 "Capacitor_SMD:C_0805_2012Metric_Pad1.18x1.45mm_HandSolder" H 4588 5950 50  0001 C CNN
F 3 "~" H 4550 6100 50  0001 C CNN
	1    4550 6100
	1    0    0    -1  
$EndComp
$Comp
L Device:C C6
U 1 1 632CBE12
P 4900 6100
F 0 "C6" H 5015 6146 50  0000 L CNN
F 1 "0.1uF" H 5015 6055 50  0000 L CNN
F 2 "Capacitor_SMD:C_0805_2012Metric_Pad1.18x1.45mm_HandSolder" H 4938 5950 50  0001 C CNN
F 3 "~" H 4900 6100 50  0001 C CNN
	1    4900 6100
	1    0    0    -1  
$EndComp
$Comp
L power:GND #PWR0102
U 1 1 632CC36A
P 3750 6250
F 0 "#PWR0102" H 3750 6000 50  0001 C CNN
F 1 "GND" H 3755 6077 50  0000 C CNN
F 2 "" H 3750 6250 50  0001 C CNN
F 3 "" H 3750 6250 50  0001 C CNN
	1    3750 6250
	1    0    0    -1  
$EndComp
$Comp
L power:GND #PWR0103
U 1 1 632CD3A0
P 4150 6250
F 0 "#PWR0103" H 4150 6000 50  0001 C CNN
F 1 "GND" H 4155 6077 50  0000 C CNN
F 2 "" H 4150 6250 50  0001 C CNN
F 3 "" H 4150 6250 50  0001 C CNN
	1    4150 6250
	1    0    0    -1  
$EndComp
$Comp
L power:GND #PWR0104
U 1 1 632CD7CE
P 4550 6250
F 0 "#PWR0104" H 4550 6000 50  0001 C CNN
F 1 "GND" H 4555 6077 50  0000 C CNN
F 2 "" H 4550 6250 50  0001 C CNN
F 3 "" H 4550 6250 50  0001 C CNN
	1    4550 6250
	1    0    0    -1  
$EndComp
$Comp
L power:GND #PWR0105
U 1 1 632CDBA7
P 4900 6250
F 0 "#PWR0105" H 4900 6000 50  0001 C CNN
F 1 "GND" H 4905 6077 50  0000 C CNN
F 2 "" H 4900 6250 50  0001 C CNN
F 3 "" H 4900 6250 50  0001 C CNN
	1    4900 6250
	1    0    0    -1  
$EndComp
Text Label 3750 5950 0    50   ~ 0
3.3V
Text Label 4150 5950 0    50   ~ 0
3.3V
Text Label 4550 5950 0    50   ~ 0
3.3V
Text Label 4900 5950 0    50   ~ 0
3.3V
Text Label 5000 4600 0    50   ~ 0
PA9
Text Label 5000 4700 0    50   ~ 0
PA10
Text Label 5000 5000 0    50   ~ 0
SWDIO
Text Label 5000 5100 0    50   ~ 0
SWCLK
Text Label 3700 2600 2    50   ~ 0
NRST
Text Label 3850 750  0    50   ~ 0
3.3V
Wire Wire Line
	3850 750  3850 950 
Wire Wire Line
	3850 1250 4200 1250
Text Label 4250 1250 0    50   ~ 0
NRST
Wire Wire Line
	4200 1250 4200 1400
Connection ~ 4200 1250
Wire Wire Line
	4200 1250 4250 1250
$Comp
L Device:C C7
U 1 1 632E28F1
P 4200 1550
F 0 "C7" H 4315 1596 50  0000 L CNN
F 1 "1uF" H 4315 1505 50  0000 L CNN
F 2 "Capacitor_SMD:C_0805_2012Metric_Pad1.18x1.45mm_HandSolder" H 4238 1400 50  0001 C CNN
F 3 "~" H 4200 1550 50  0001 C CNN
	1    4200 1550
	1    0    0    -1  
$EndComp
$Comp
L power:GND #PWR0107
U 1 1 632E3432
P 4200 1750
F 0 "#PWR0107" H 4200 1500 50  0001 C CNN
F 1 "GND" H 4205 1577 50  0000 C CNN
F 2 "" H 4200 1750 50  0001 C CNN
F 3 "" H 4200 1750 50  0001 C CNN
	1    4200 1750
	1    0    0    -1  
$EndComp
$Comp
L Switch:SW_Push RESET1
U 1 1 632E4DEE
P 3850 1550
F 0 "RESET1" V 3896 1502 50  0000 R CNN
F 1 "SW_Push" V 3805 1502 50  0000 R CNN
F 2 "Button_Switch_THT:SW_PUSH_6mm_H9.5mm" H 3850 1750 50  0001 C CNN
F 3 "~" H 3850 1750 50  0001 C CNN
	1    3850 1550
	0    -1   -1   0   
$EndComp
Wire Wire Line
	3850 1350 3850 1250
$Comp
L power:GND #PWR0108
U 1 1 632E68E1
P 3850 1750
F 0 "#PWR0108" H 3850 1500 50  0001 C CNN
F 1 "GND" H 3855 1577 50  0000 C CNN
F 2 "" H 3850 1750 50  0001 C CNN
F 3 "" H 3850 1750 50  0001 C CNN
	1    3850 1750
	1    0    0    -1  
$EndComp
Wire Wire Line
	4200 1700 4200 1750
Wire Notes Line
	2950 2150 2950 500 
Wire Notes Line
	3150 6550 5450 6550
Text Notes 950  650  2    50   ~ 0
5V to 3.3v\n
Text Notes 1050 2300 2    50   ~ 0
Programmer\n
Text Notes 3650 2300 2    50   ~ 0
STM32 Chip\n
Text Notes 3500 650  2    50   ~ 0
Reset Switch\n
$Comp
L power:GND #PWR0109
U 1 1 6335FE1C
P 4800 5500
F 0 "#PWR0109" H 4800 5250 50  0001 C CNN
F 1 "GND" H 4805 5327 50  0000 C CNN
F 2 "" H 4800 5500 50  0001 C CNN
F 3 "" H 4800 5500 50  0001 C CNN
	1    4800 5500
	1    0    0    -1  
$EndComp
Wire Wire Line
	4200 5400 4200 5500
Wire Wire Line
	4200 5500 4300 5500
Wire Wire Line
	4300 5400 4300 5500
Connection ~ 4300 5500
Wire Wire Line
	4300 5500 4400 5500
Wire Wire Line
	4400 5400 4400 5500
Connection ~ 4400 5500
Wire Wire Line
	4400 5500 4500 5500
Wire Wire Line
	4500 5400 4500 5500
Connection ~ 4500 5500
Wire Wire Line
	4500 5500 4800 5500
Text Label 4700 2250 0    50   ~ 0
3.3V
Wire Wire Line
	4300 2400 4300 2250
Wire Wire Line
	4300 2250 4400 2250
Wire Wire Line
	4400 2400 4400 2250
Connection ~ 4400 2250
Wire Wire Line
	4400 2250 4500 2250
Wire Wire Line
	4500 2400 4500 2250
Connection ~ 4500 2250
Wire Wire Line
	4500 2250 4600 2250
Wire Wire Line
	4600 2400 4600 2250
Connection ~ 4600 2250
Wire Wire Line
	4600 2250 4700 2250
Text Label 1500 5550 2    50   ~ 0
GPIO_3
Text Label 1500 5650 2    50   ~ 0
GPIO_4
Text Label 1500 6250 2    50   ~ 0
GPIO_10
Text Label 1500 6350 2    50   ~ 0
GPIO_9
Text Label 1500 6450 2    50   ~ 0
GPIO_11
Text Label 1500 6550 2    50   ~ 0
GND_2
Text Label 2000 6250 0    50   ~ 0
GND_1
Text Label 2000 5650 0    50   ~ 0
GPIO_14
Text Label 2000 5750 0    50   ~ 0
GPIO_15
Text Label 2000 5850 0    50   ~ 0
GPIO_18
Text Label 2000 6350 0    50   ~ 0
GPIO_25
Text Label 2000 6450 0    50   ~ 0
GPIO_8
Text Label 2000 6550 0    50   ~ 0
GPIO_7
$Comp
L Device:LED D2
U 1 1 63338B47
P 6500 1400
F 0 "D2" V 6539 1282 50  0000 R CNN
F 1 "LED" V 6448 1282 50  0000 R CNN
F 2 "LED_THT:LED_D5.0mm" H 6500 1400 50  0001 C CNN
F 3 "~" H 6500 1400 50  0001 C CNN
	1    6500 1400
	0    -1   -1   0   
$EndComp
$Comp
L Device:LED D3
U 1 1 6333A22D
P 6800 1400
F 0 "D3" V 6839 1282 50  0000 R CNN
F 1 "LED" V 6748 1282 50  0000 R CNN
F 2 "LED_THT:LED_D5.0mm" H 6800 1400 50  0001 C CNN
F 3 "~" H 6800 1400 50  0001 C CNN
	1    6800 1400
	0    -1   -1   0   
$EndComp
$Comp
L Device:LED D4
U 1 1 6333A770
P 7100 1400
F 0 "D4" V 7139 1282 50  0000 R CNN
F 1 "LED" V 7048 1282 50  0000 R CNN
F 2 "LED_THT:LED_D5.0mm" H 7100 1400 50  0001 C CNN
F 3 "~" H 7100 1400 50  0001 C CNN
	1    7100 1400
	0    -1   -1   0   
$EndComp
$Comp
L Device:LED D5
U 1 1 6333ABFA
P 7400 1400
F 0 "D5" V 7439 1282 50  0000 R CNN
F 1 "LED" V 7348 1282 50  0000 R CNN
F 2 "LED_THT:LED_D5.0mm" H 7400 1400 50  0001 C CNN
F 3 "~" H 7400 1400 50  0001 C CNN
	1    7400 1400
	0    -1   -1   0   
$EndComp
$Comp
L Device:LED D6
U 1 1 6333B012
P 7700 1400
F 0 "D6" V 7739 1282 50  0000 R CNN
F 1 "LED" V 7648 1282 50  0000 R CNN
F 2 "LED_THT:LED_D5.0mm" H 7700 1400 50  0001 C CNN
F 3 "~" H 7700 1400 50  0001 C CNN
	1    7700 1400
	0    -1   -1   0   
$EndComp
$Comp
L Device:LED D7
U 1 1 6333C194
P 8000 1400
F 0 "D7" V 8039 1282 50  0000 R CNN
F 1 "LED" V 7948 1282 50  0000 R CNN
F 2 "LED_THT:LED_D5.0mm" H 8000 1400 50  0001 C CNN
F 3 "~" H 8000 1400 50  0001 C CNN
	1    8000 1400
	0    -1   -1   0   
$EndComp
$Comp
L Device:R R7
U 1 1 6333C6D6
P 6500 1000
F 0 "R7" H 6570 1046 50  0000 L CNN
F 1 "15" H 6570 955 50  0000 L CNN
F 2 "Resistor_SMD:R_0805_2012Metric_Pad1.20x1.40mm_HandSolder" V 6430 1000 50  0001 C CNN
F 3 "~" H 6500 1000 50  0001 C CNN
	1    6500 1000
	1    0    0    -1  
$EndComp
$Comp
L Device:R R8
U 1 1 6333D20E
P 6800 1000
F 0 "R8" H 6870 1046 50  0000 L CNN
F 1 "15" H 6870 955 50  0000 L CNN
F 2 "Resistor_SMD:R_0805_2012Metric_Pad1.20x1.40mm_HandSolder" V 6730 1000 50  0001 C CNN
F 3 "~" H 6800 1000 50  0001 C CNN
	1    6800 1000
	1    0    0    -1  
$EndComp
$Comp
L Device:R R9
U 1 1 6333D5F2
P 7100 1000
F 0 "R9" H 7170 1046 50  0000 L CNN
F 1 "15" H 7170 955 50  0000 L CNN
F 2 "Resistor_SMD:R_0805_2012Metric_Pad1.20x1.40mm_HandSolder" V 7030 1000 50  0001 C CNN
F 3 "~" H 7100 1000 50  0001 C CNN
	1    7100 1000
	1    0    0    -1  
$EndComp
$Comp
L Device:R R10
U 1 1 6333D8B2
P 7400 1000
F 0 "R10" H 7470 1046 50  0000 L CNN
F 1 "15" H 7470 955 50  0000 L CNN
F 2 "Resistor_SMD:R_0805_2012Metric_Pad1.20x1.40mm_HandSolder" V 7330 1000 50  0001 C CNN
F 3 "~" H 7400 1000 50  0001 C CNN
	1    7400 1000
	1    0    0    -1  
$EndComp
$Comp
L Device:R R11
U 1 1 6333DBF3
P 7700 1000
F 0 "R11" H 7770 1046 50  0000 L CNN
F 1 "15" H 7770 955 50  0000 L CNN
F 2 "Resistor_SMD:R_0805_2012Metric_Pad1.20x1.40mm_HandSolder" V 7630 1000 50  0001 C CNN
F 3 "~" H 7700 1000 50  0001 C CNN
	1    7700 1000
	1    0    0    -1  
$EndComp
$Comp
L Device:R R13
U 1 1 6333DFFE
P 8000 1000
F 0 "R13" H 8070 1046 50  0000 L CNN
F 1 "15" H 8070 955 50  0000 L CNN
F 2 "Resistor_SMD:R_0805_2012Metric_Pad1.20x1.40mm_HandSolder" V 7930 1000 50  0001 C CNN
F 3 "~" H 8000 1000 50  0001 C CNN
	1    8000 1000
	1    0    0    -1  
$EndComp
Wire Wire Line
	6500 1150 6500 1250
Wire Wire Line
	6800 1150 6800 1250
Wire Wire Line
	7100 1150 7100 1250
Wire Wire Line
	7400 1150 7400 1250
Wire Wire Line
	7700 1150 7700 1250
Wire Wire Line
	8000 1150 8000 1250
Wire Wire Line
	8000 1550 7700 1550
Connection ~ 6800 1550
Wire Wire Line
	6800 1550 6500 1550
Connection ~ 7100 1550
Wire Wire Line
	7100 1550 6800 1550
Connection ~ 7400 1550
Wire Wire Line
	7400 1550 7100 1550
Connection ~ 7700 1550
Wire Wire Line
	7700 1550 7400 1550
Wire Wire Line
	6500 1550 6500 1700
Connection ~ 6500 1550
Connection ~ 3850 1250
$Comp
L Device:R R2
U 1 1 632DFD7C
P 3850 1100
F 0 "R2" H 3920 1146 50  0000 L CNN
F 1 "10K" H 3920 1055 50  0000 L CNN
F 2 "Resistor_SMD:R_0805_2012Metric_Pad1.20x1.40mm_HandSolder" V 3780 1100 50  0001 C CNN
F 3 "~" H 3850 1100 50  0001 C CNN
	1    3850 1100
	1    0    0    -1  
$EndComp
Wire Wire Line
	6500 850  6800 850 
Connection ~ 6800 850 
Wire Wire Line
	6800 850  7100 850 
Connection ~ 7100 850 
Wire Wire Line
	7100 850  7400 850 
Connection ~ 7400 850 
Wire Wire Line
	7400 850  7700 850 
Connection ~ 7700 850 
Wire Wire Line
	7700 850  8000 850 
Wire Wire Line
	6500 850  6500 650 
Connection ~ 6500 850 
Text Label 6500 650  0    50   ~ 0
3.3V
$Comp
L power:GND #PWR0110
U 1 1 63354B4D
P 6500 2350
F 0 "#PWR0110" H 6500 2100 50  0001 C CNN
F 1 "GND" H 6505 2177 50  0000 C CNN
F 2 "" H 6500 2350 50  0001 C CNN
F 3 "" H 6500 2350 50  0001 C CNN
	1    6500 2350
	1    0    0    -1  
$EndComp
Wire Wire Line
	6500 2100 6500 2300
$Comp
L Device:LED D9
U 1 1 6338D7F8
P 9400 1300
F 0 "D9" V 9439 1182 50  0000 R CNN
F 1 "LED" V 9348 1182 50  0000 R CNN
F 2 "LED_THT:LED_D5.0mm" H 9400 1300 50  0001 C CNN
F 3 "~" H 9400 1300 50  0001 C CNN
	1    9400 1300
	0    -1   -1   0   
$EndComp
$Comp
L Device:LED D10
U 1 1 6338D7FE
P 9700 1300
F 0 "D10" V 9739 1182 50  0000 R CNN
F 1 "LED" V 9648 1182 50  0000 R CNN
F 2 "LED_THT:LED_D5.0mm" H 9700 1300 50  0001 C CNN
F 3 "~" H 9700 1300 50  0001 C CNN
	1    9700 1300
	0    -1   -1   0   
$EndComp
$Comp
L Device:LED D12
U 1 1 6338D804
P 10000 1300
F 0 "D12" V 10039 1182 50  0000 R CNN
F 1 "LED" V 9948 1182 50  0000 R CNN
F 2 "LED_THT:LED_D5.0mm" H 10000 1300 50  0001 C CNN
F 3 "~" H 10000 1300 50  0001 C CNN
	1    10000 1300
	0    -1   -1   0   
$EndComp
$Comp
L Device:LED D14
U 1 1 6338D80A
P 10300 1300
F 0 "D14" V 10339 1182 50  0000 R CNN
F 1 "LED" V 10248 1182 50  0000 R CNN
F 2 "LED_THT:LED_D5.0mm" H 10300 1300 50  0001 C CNN
F 3 "~" H 10300 1300 50  0001 C CNN
	1    10300 1300
	0    -1   -1   0   
$EndComp
$Comp
L Device:LED D16
U 1 1 6338D810
P 10600 1300
F 0 "D16" V 10639 1182 50  0000 R CNN
F 1 "LED" V 10548 1182 50  0000 R CNN
F 2 "LED_THT:LED_D5.0mm" H 10600 1300 50  0001 C CNN
F 3 "~" H 10600 1300 50  0001 C CNN
	1    10600 1300
	0    -1   -1   0   
$EndComp
Wire Wire Line
	9400 1050 9400 1150
Wire Wire Line
	9700 1050 9700 1150
Wire Wire Line
	10000 1050 10000 1150
Wire Wire Line
	10300 1050 10300 1150
Wire Wire Line
	10600 1050 10600 1150
Connection ~ 9700 1450
Wire Wire Line
	9700 1450 9400 1450
Connection ~ 10000 1450
Wire Wire Line
	10000 1450 9700 1450
Connection ~ 10300 1450
Wire Wire Line
	10300 1450 10000 1450
Wire Wire Line
	10600 1450 10300 1450
Wire Wire Line
	9400 1450 9400 1600
Connection ~ 9400 1450
Wire Wire Line
	9400 750  9400 550 
Text Label 9400 550  0    50   ~ 0
3.3V
Wire Wire Line
	8950 1800 9100 1800
$Comp
L power:GND #PWR0111
U 1 1 6338D864
P 9400 2250
F 0 "#PWR0111" H 9400 2000 50  0001 C CNN
F 1 "GND" H 9405 2077 50  0000 C CNN
F 2 "" H 9400 2250 50  0001 C CNN
F 3 "" H 9400 2250 50  0001 C CNN
	1    9400 2250
	1    0    0    -1  
$EndComp
Wire Wire Line
	9400 2000 9400 2150
$Comp
L Device:LED D11
U 1 1 633A0AB5
P 9800 3500
F 0 "D11" V 9839 3382 50  0000 R CNN
F 1 "LED" V 9748 3382 50  0000 R CNN
F 2 "LED_THT:LED_D5.0mm" H 9800 3500 50  0001 C CNN
F 3 "~" H 9800 3500 50  0001 C CNN
	1    9800 3500
	0    -1   -1   0   
$EndComp
$Comp
L Device:LED D13
U 1 1 633A0ABB
P 10100 3500
F 0 "D13" V 10139 3382 50  0000 R CNN
F 1 "LED" V 10048 3382 50  0000 R CNN
F 2 "LED_THT:LED_D5.0mm" H 10100 3500 50  0001 C CNN
F 3 "~" H 10100 3500 50  0001 C CNN
	1    10100 3500
	0    -1   -1   0   
$EndComp
$Comp
L Device:LED D15
U 1 1 633A0AC1
P 10400 3500
F 0 "D15" V 10439 3382 50  0000 R CNN
F 1 "LED" V 10348 3382 50  0000 R CNN
F 2 "LED_THT:LED_D5.0mm" H 10400 3500 50  0001 C CNN
F 3 "~" H 10400 3500 50  0001 C CNN
	1    10400 3500
	0    -1   -1   0   
$EndComp
Wire Wire Line
	9800 3250 9800 3350
Wire Wire Line
	10100 3250 10100 3350
Wire Wire Line
	10400 3250 10400 3350
Connection ~ 10100 3650
Wire Wire Line
	10100 3650 9800 3650
Wire Wire Line
	10400 3650 10100 3650
Wire Wire Line
	9800 3650 9800 3800
Connection ~ 9800 3650
Wire Wire Line
	9800 2950 9800 2750
Text Label 9800 2750 0    50   ~ 0
3.3V
$Comp
L power:GND #PWR0112
U 1 1 633A0B10
P 9800 4450
F 0 "#PWR0112" H 9800 4200 50  0001 C CNN
F 1 "GND" H 9805 4277 50  0000 C CNN
F 2 "" H 9800 4450 50  0001 C CNN
F 3 "" H 9800 4450 50  0001 C CNN
	1    9800 4450
	1    0    0    -1  
$EndComp
Wire Wire Line
	9800 4200 9800 4350
$Comp
L Device:LED D1
U 1 1 633C5D8D
P 6450 3500
F 0 "D1" V 6489 3382 50  0000 R CNN
F 1 "LED" V 6398 3382 50  0000 R CNN
F 2 "LED_THT:LED_D5.0mm" H 6450 3500 50  0001 C CNN
F 3 "~" H 6450 3500 50  0001 C CNN
	1    6450 3500
	0    -1   -1   0   
$EndComp
Wire Wire Line
	6450 3250 6450 3350
Wire Wire Line
	6450 3650 6450 3800
Wire Wire Line
	6450 2950 6450 2750
Text Label 6450 2750 0    50   ~ 0
3.3V
Wire Wire Line
	6000 4000 6150 4000
$Comp
L power:GND #PWR0113
U 1 1 633C5DE8
P 6450 4450
F 0 "#PWR0113" H 6450 4200 50  0001 C CNN
F 1 "GND" H 6455 4277 50  0000 C CNN
F 2 "" H 6450 4450 50  0001 C CNN
F 3 "" H 6450 4450 50  0001 C CNN
	1    6450 4450
	1    0    0    -1  
$EndComp
Wire Wire Line
	6450 4200 6450 4350
$Comp
L Device:LED D8
U 1 1 633FB683
P 8200 3500
F 0 "D8" V 8239 3382 50  0000 R CNN
F 1 "LED" V 8148 3382 50  0000 R CNN
F 2 "LED_THT:LED_D5.0mm" H 8200 3500 50  0001 C CNN
F 3 "~" H 8200 3500 50  0001 C CNN
	1    8200 3500
	0    -1   -1   0   
$EndComp
Wire Wire Line
	8200 3250 8200 3350
Wire Wire Line
	8200 3650 8200 3800
$Comp
L Device:R R12
U 1 1 633FB691
P 7750 4200
F 0 "R12" H 7820 4246 50  0000 L CNN
F 1 "10K" H 7820 4155 50  0000 L CNN
F 2 "Resistor_SMD:R_0805_2012Metric_Pad1.20x1.40mm_HandSolder" V 7680 4200 50  0001 C CNN
F 3 "~" H 7750 4200 50  0001 C CNN
	1    7750 4200
	1    0    0    -1  
$EndComp
Wire Wire Line
	8200 2950 8200 2750
Text Label 8200 2750 0    50   ~ 0
3.3V
$Comp
L power:GND #PWR0114
U 1 1 633FB69A
P 8200 4450
F 0 "#PWR0114" H 8200 4200 50  0001 C CNN
F 1 "GND" H 8205 4277 50  0000 C CNN
F 2 "" H 8200 4450 50  0001 C CNN
F 3 "" H 8200 4450 50  0001 C CNN
	1    8200 4450
	1    0    0    -1  
$EndComp
Wire Wire Line
	8200 4200 8200 4350
Wire Wire Line
	6450 5550 6450 5650
$Comp
L Device:R R3
U 1 1 634229FF
P 6000 6500
F 0 "R3" H 6070 6546 50  0000 L CNN
F 1 "10K" H 6070 6455 50  0000 L CNN
F 2 "Resistor_SMD:R_0805_2012Metric_Pad1.20x1.40mm_HandSolder" V 5930 6500 50  0001 C CNN
F 3 "~" H 6000 6500 50  0001 C CNN
	1    6000 6500
	-1   0    0    1   
$EndComp
Wire Wire Line
	6450 5250 6450 5050
Text Label 6450 5050 0    50   ~ 0
3.3V
$Comp
L power:GND #PWR0115
U 1 1 63422A08
P 6450 6750
F 0 "#PWR0115" H 6450 6500 50  0001 C CNN
F 1 "GND" H 6455 6577 50  0000 C CNN
F 2 "" H 6450 6750 50  0001 C CNN
F 3 "" H 6450 6750 50  0001 C CNN
	1    6450 6750
	1    0    0    -1  
$EndComp
Wire Wire Line
	6450 6500 6450 6650
Text Notes 550  4800 0    50   ~ 0
Raspberry Pi GPIO
Wire Notes Line
	3150 2150 3150 7800
Wire Notes Line
	3150 4500 550  4500
Wire Notes Line
	5450 4800 11200 4800
Text Notes 5550 650  0    50   ~ 0
LED Driver
Text Notes 5550 4950 0    50   ~ 0
Buzzer\n
$Comp
L Device:Buzzer BZ1
U 1 1 6359E061
P 6550 5750
F 0 "BZ1" H 6702 5779 50  0000 L CNN
F 1 "Buzzer" H 6702 5688 50  0000 L CNN
F 2 "PB-12N23P-03Q:PB-12N23P-03Q" V 6525 5850 50  0001 C CNN
F 3 "~" V 6525 5850 50  0001 C CNN
	1    6550 5750
	1    0    0    -1  
$EndComp
Wire Wire Line
	6450 5850 6450 6100
Wire Notes Line
	5450 7050 6950 7050
Wire Notes Line
	7250 4800 7250 6500
Wire Wire Line
	9800 2950 10100 2950
Wire Wire Line
	9400 750  9700 750 
$Comp
L Device:R R23
U 1 1 635B36F2
P 10400 3100
F 0 "R23" H 10470 3146 50  0000 L CNN
F 1 "15" H 10470 3055 50  0000 L CNN
F 2 "Resistor_SMD:R_0805_2012Metric_Pad1.20x1.40mm_HandSolder" V 10330 3100 50  0001 C CNN
F 3 "~" H 10400 3100 50  0001 C CNN
	1    10400 3100
	1    0    0    -1  
$EndComp
$Comp
L Device:R R21
U 1 1 635B3AAA
P 10100 3100
F 0 "R21" H 10170 3146 50  0000 L CNN
F 1 "15" H 10170 3055 50  0000 L CNN
F 2 "Resistor_SMD:R_0805_2012Metric_Pad1.20x1.40mm_HandSolder" V 10030 3100 50  0001 C CNN
F 3 "~" H 10100 3100 50  0001 C CNN
	1    10100 3100
	1    0    0    -1  
$EndComp
Connection ~ 10100 2950
Wire Wire Line
	10100 2950 10400 2950
$Comp
L Device:R R19
U 1 1 635B4167
P 9800 3100
F 0 "R19" H 9870 3146 50  0000 L CNN
F 1 "15" H 9870 3055 50  0000 L CNN
F 2 "Resistor_SMD:R_0805_2012Metric_Pad1.20x1.40mm_HandSolder" V 9730 3100 50  0001 C CNN
F 3 "~" H 9800 3100 50  0001 C CNN
	1    9800 3100
	1    0    0    -1  
$EndComp
Connection ~ 9800 2950
$Comp
L Device:R R24
U 1 1 635B45AB
P 10600 900
F 0 "R24" H 10670 946 50  0000 L CNN
F 1 "15" H 10670 855 50  0000 L CNN
F 2 "Resistor_SMD:R_0805_2012Metric_Pad1.20x1.40mm_HandSolder" V 10530 900 50  0001 C CNN
F 3 "~" H 10600 900 50  0001 C CNN
	1    10600 900 
	1    0    0    -1  
$EndComp
$Comp
L Device:R R22
U 1 1 635B51EC
P 10300 900
F 0 "R22" H 10370 946 50  0000 L CNN
F 1 "15" H 10370 855 50  0000 L CNN
F 2 "Resistor_SMD:R_0805_2012Metric_Pad1.20x1.40mm_HandSolder" V 10230 900 50  0001 C CNN
F 3 "~" H 10300 900 50  0001 C CNN
	1    10300 900 
	1    0    0    -1  
$EndComp
Connection ~ 10300 750 
Wire Wire Line
	10300 750  10600 750 
$Comp
L Device:R R20
U 1 1 635B5580
P 10000 900
F 0 "R20" H 10070 946 50  0000 L CNN
F 1 "15" H 10070 855 50  0000 L CNN
F 2 "Resistor_SMD:R_0805_2012Metric_Pad1.20x1.40mm_HandSolder" V 9930 900 50  0001 C CNN
F 3 "~" H 10000 900 50  0001 C CNN
	1    10000 900 
	1    0    0    -1  
$EndComp
Connection ~ 10000 750 
Wire Wire Line
	10000 750  10300 750 
$Comp
L Device:R R18
U 1 1 635B590B
P 9700 900
F 0 "R18" H 9770 946 50  0000 L CNN
F 1 "15" H 9770 855 50  0000 L CNN
F 2 "Resistor_SMD:R_0805_2012Metric_Pad1.20x1.40mm_HandSolder" V 9630 900 50  0001 C CNN
F 3 "~" H 9700 900 50  0001 C CNN
	1    9700 900 
	1    0    0    -1  
$EndComp
Connection ~ 9700 750 
Wire Wire Line
	9700 750  10000 750 
$Comp
L Device:R R17
U 1 1 635B5F08
P 9400 900
F 0 "R17" H 9470 946 50  0000 L CNN
F 1 "15" H 9470 855 50  0000 L CNN
F 2 "Resistor_SMD:R_0805_2012Metric_Pad1.20x1.40mm_HandSolder" V 9330 900 50  0001 C CNN
F 3 "~" H 9400 900 50  0001 C CNN
	1    9400 900 
	1    0    0    -1  
$EndComp
Connection ~ 9400 750 
$Comp
L Device:R R14
U 1 1 635B61D1
P 8200 3100
F 0 "R14" H 8270 3146 50  0000 L CNN
F 1 "15" H 8270 3055 50  0000 L CNN
F 2 "Resistor_SMD:R_0805_2012Metric_Pad1.20x1.40mm_HandSolder" V 8130 3100 50  0001 C CNN
F 3 "~" H 8200 3100 50  0001 C CNN
	1    8200 3100
	1    0    0    -1  
$EndComp
$Comp
L Device:R R5
U 1 1 635B7399
P 6450 3100
F 0 "R5" H 6520 3146 50  0000 L CNN
F 1 "15" H 6520 3055 50  0000 L CNN
F 2 "Resistor_SMD:R_0805_2012Metric_Pad1.20x1.40mm_HandSolder" V 6380 3100 50  0001 C CNN
F 3 "~" H 6450 3100 50  0001 C CNN
	1    6450 3100
	1    0    0    -1  
$EndComp
Wire Notes Line
	550  2150 5450 2150
Wire Wire Line
	7750 4050 7750 4000
Wire Wire Line
	7750 4000 7900 4000
Wire Wire Line
	7750 4350 8200 4350
Connection ~ 8200 4350
Wire Wire Line
	8200 4350 8200 4450
$Comp
L Device:R R1
U 1 1 6363BE11
P 6000 4200
F 0 "R1" H 6070 4246 50  0000 L CNN
F 1 "10K" H 6070 4155 50  0000 L CNN
F 2 "Resistor_SMD:R_0805_2012Metric_Pad1.20x1.40mm_HandSolder" V 5930 4200 50  0001 C CNN
F 3 "~" H 6000 4200 50  0001 C CNN
	1    6000 4200
	1    0    0    -1  
$EndComp
$Comp
L Device:R R16
U 1 1 6363C374
P 9350 4200
F 0 "R16" H 9420 4246 50  0000 L CNN
F 1 "10K" H 9420 4155 50  0000 L CNN
F 2 "Resistor_SMD:R_0805_2012Metric_Pad1.20x1.40mm_HandSolder" V 9280 4200 50  0001 C CNN
F 3 "~" H 9350 4200 50  0001 C CNN
	1    9350 4200
	1    0    0    -1  
$EndComp
$Comp
L Device:R R15
U 1 1 6363C8AC
P 8950 2000
F 0 "R15" H 9020 2046 50  0000 L CNN
F 1 "10K" H 9020 1955 50  0000 L CNN
F 2 "Resistor_SMD:R_0805_2012Metric_Pad1.20x1.40mm_HandSolder" V 8880 2000 50  0001 C CNN
F 3 "~" H 8950 2000 50  0001 C CNN
	1    8950 2000
	1    0    0    -1  
$EndComp
Wire Wire Line
	8950 2150 9400 2150
Connection ~ 9400 2150
Wire Wire Line
	9400 2150 9400 2250
Wire Wire Line
	8950 1850 8950 1800
Wire Wire Line
	9350 4350 9800 4350
Connection ~ 9800 4350
Wire Wire Line
	9800 4350 9800 4450
Wire Wire Line
	6000 4050 6000 4000
Wire Wire Line
	6000 4350 6450 4350
Connection ~ 6450 4350
Wire Wire Line
	6450 4350 6450 4450
$Comp
L Device:R R4
U 1 1 63658C13
P 6050 2150
F 0 "R4" H 6120 2196 50  0000 L CNN
F 1 "10K" H 6120 2105 50  0000 L CNN
F 2 "Resistor_SMD:R_0805_2012Metric_Pad1.20x1.40mm_HandSolder" V 5980 2150 50  0001 C CNN
F 3 "~" H 6050 2150 50  0001 C CNN
	1    6050 2150
	1    0    0    -1  
$EndComp
Wire Wire Line
	6050 2300 6500 2300
Connection ~ 6500 2300
Wire Wire Line
	6500 2300 6500 2350
Wire Wire Line
	6050 2000 6050 1900
Wire Wire Line
	6050 1900 6200 1900
Wire Wire Line
	6050 1900 5850 1900
Connection ~ 6050 1900
Wire Wire Line
	8950 1800 8750 1800
Connection ~ 8950 1800
Wire Wire Line
	9150 4000 9350 4000
Wire Wire Line
	9350 4050 9350 4000
Connection ~ 9350 4000
Wire Wire Line
	9350 4000 9500 4000
Wire Wire Line
	6000 4000 5800 4000
Connection ~ 6000 4000
Connection ~ 7750 4000
Wire Wire Line
	7550 4000 7750 4000
Wire Wire Line
	6000 6350 6000 6300
Wire Wire Line
	6000 6650 6450 6650
Connection ~ 6450 6650
Wire Wire Line
	6450 6650 6450 6750
Wire Wire Line
	6000 6300 5800 6300
$Comp
L Device:R R6
U 1 1 6369EAF2
P 6450 5400
F 0 "R6" H 6520 5446 50  0000 L CNN
F 1 "15" H 6520 5355 50  0000 L CNN
F 2 "Resistor_SMD:R_0805_2012Metric_Pad1.20x1.40mm_HandSolder" V 6380 5400 50  0001 C CNN
F 3 "~" H 6450 5400 50  0001 C CNN
	1    6450 5400
	1    0    0    -1  
$EndComp
$Comp
L Connector_Generic:Conn_02x13_Odd_Even J3
U 1 1 636AAA72
P 8250 5750
F 0 "J3" H 8300 6567 50  0000 C CNN
F 1 "Conn_02x13_Odd_Even" H 8300 6476 50  0000 C CNN
F 2 "Connector_PinHeader_2.54mm:PinHeader_2x13_P2.54mm_Vertical" H 8250 5750 50  0001 C CNN
F 3 "~" H 8250 5750 50  0001 C CNN
	1    8250 5750
	1    0    0    -1  
$EndComp
Text Notes 7300 4950 0    50   ~ 0
Display
Text Label 2000 5350 0    50   ~ 0
RPI_5V_1
Text Label 2000 5450 0    50   ~ 0
RPI_5V_2
Text Label 1500 5350 2    50   ~ 0
RPI_3_3V_1
$Comp
L Connector_Generic:Conn_02x20_Odd_Even J2
U 1 1 636B363D
P 1700 6250
F 0 "J2" H 1750 7367 50  0000 C CNN
F 1 "Conn_02x20_Odd_Even" H 1750 7276 50  0000 C CNN
F 2 "Connector_PinHeader_2.54mm:PinHeader_2x20_P2.54mm_Vertical" H 1750 7275 50  0001 C CNN
F 3 "~" H 1700 6250 50  0001 C CNN
	1    1700 6250
	1    0    0    -1  
$EndComp
Text Label 8550 5150 0    50   ~ 0
RPI_5V_1
Text Label 8050 5150 2    50   ~ 0
RPI_3_3V_1
Text Label 8550 5250 0    50   ~ 0
RPI_5V_2
Text Label 8050 6050 2    50   ~ 0
GPIO_10
Text Label 8550 6050 0    50   ~ 0
GND_1
Text Label 8550 6150 0    50   ~ 0
GPIO_25
Text Label 8550 6250 0    50   ~ 0
GPIO_8
Text Label 8050 6350 2    50   ~ 0
GND_2
Text Label 8050 6250 2    50   ~ 0
GPIO_11
Text Label 8050 6150 2    50   ~ 0
GPIO_9
Wire Notes Line
	9150 4800 9150 6500
Text Label 5000 3900 0    50   ~ 0
GPIO_14
Text Label 5000 4000 0    50   ~ 0
GPIO_15
Text Label 5000 4100 0    50   ~ 0
GPIO_18
Text Label 5000 3700 0    50   ~ 0
GPIO_3
Text Label 5000 3800 0    50   ~ 0
GPIO_4
Text Notes 10150 4950 2    50   ~ 0
Boost Converter Output
Text Label 10000 5450 0    50   ~ 0
5V
$Comp
L power:GND #PWR0116
U 1 1 636FA5E1
P 10000 5550
F 0 "#PWR0116" H 10000 5300 50  0001 C CNN
F 1 "GND" V 10005 5422 50  0000 R CNN
F 2 "" H 10000 5550 50  0001 C CNN
F 3 "" H 10000 5550 50  0001 C CNN
	1    10000 5550
	0    -1   -1   0   
$EndComp
Text Label 1100 1250 2    50   ~ 0
5V
Text Label 5000 4200 0    50   ~ 0
LED_CLO
Text Label 5000 4300 0    50   ~ 0
LED_MID
Text Label 5000 4400 0    50   ~ 0
LED_FAR
Text Label 5850 1900 2    50   ~ 0
LED_FAR
Text Label 8750 1800 2    50   ~ 0
LED_MID
Text Label 9150 4000 2    50   ~ 0
LED_CLO
Text Label 3700 4200 2    50   ~ 0
LED_BL
Text Label 3700 4100 2    50   ~ 0
LED_BR
Text Label 3700 4300 2    50   ~ 0
BUZZER
Text Label 5800 6300 2    50   ~ 0
BUZZER
Text Label 7550 4000 2    50   ~ 0
LED_BR
Text Label 5800 4000 2    50   ~ 0
LED_BL
$Comp
L Connector:Conn_01x04_Male J1
U 1 1 6372FE1E
P 1000 3100
F 0 "J1" H 1108 3381 50  0000 C CNN
F 1 "Conn_01x04_Male" H 1000 2800 50  0000 C CNN
F 2 "Connector_PinHeader_2.54mm:PinHeader_1x04_P2.54mm_Vertical" H 1000 3100 50  0001 C CNN
F 3 "~" H 1000 3100 50  0001 C CNN
	1    1000 3100
	1    0    0    -1  
$EndComp
Text Label 1200 3000 0    50   ~ 0
3.3V
Text Label 1200 3100 0    50   ~ 0
SWDIO
Text Label 1200 3200 0    50   ~ 0
SWCLK
Wire Wire Line
	1200 3000 1750 3000
$Comp
L Device:C C8
U 1 1 63738C36
P 1750 3150
F 0 "C8" H 1865 3196 50  0000 L CNN
F 1 "0.1uF" H 1865 3105 50  0000 L CNN
F 2 "Capacitor_SMD:C_0805_2012Metric_Pad1.18x1.45mm_HandSolder" H 1788 3000 50  0001 C CNN
F 3 "~" H 1750 3150 50  0001 C CNN
	1    1750 3150
	1    0    0    -1  
$EndComp
$Comp
L power:GND #PWR0117
U 1 1 6373AA33
P 1450 3300
F 0 "#PWR0117" H 1450 3050 50  0001 C CNN
F 1 "GND" H 1455 3127 50  0000 C CNN
F 2 "" H 1450 3300 50  0001 C CNN
F 3 "" H 1450 3300 50  0001 C CNN
	1    1450 3300
	1    0    0    -1  
$EndComp
Wire Notes Line
	5450 500  5450 7050
$Comp
L Mechanical:MountingHole H1
U 1 1 6392B7CD
P 3400 6750
F 0 "H1" H 3500 6796 50  0000 L CNN
F 1 "MountingHole" H 3500 6705 50  0000 L CNN
F 2 "MountingHole:MountingHole_3.2mm_M3" H 3400 6750 50  0001 C CNN
F 3 "~" H 3400 6750 50  0001 C CNN
	1    3400 6750
	1    0    0    -1  
$EndComp
$Comp
L Mechanical:MountingHole H2
U 1 1 6392D66E
P 3400 7000
F 0 "H2" H 3500 7046 50  0000 L CNN
F 1 "MountingHole" H 3500 6955 50  0000 L CNN
F 2 "MountingHole:MountingHole_3.2mm_M3" H 3400 7000 50  0001 C CNN
F 3 "~" H 3400 7000 50  0001 C CNN
	1    3400 7000
	1    0    0    -1  
$EndComp
$Comp
L Mechanical:MountingHole H3
U 1 1 6392D8F3
P 3400 7250
F 0 "H3" H 3500 7296 50  0000 L CNN
F 1 "MountingHole" H 3500 7205 50  0000 L CNN
F 2 "MountingHole:MountingHole_3.2mm_M3" H 3400 7250 50  0001 C CNN
F 3 "~" H 3400 7250 50  0001 C CNN
	1    3400 7250
	1    0    0    -1  
$EndComp
$Comp
L Mechanical:MountingHole H4
U 1 1 6392DB8A
P 3400 7500
F 0 "H4" H 3500 7546 50  0000 L CNN
F 1 "MountingHole" H 3500 7455 50  0000 L CNN
F 2 "MountingHole:MountingHole_3.2mm_M3" H 3400 7500 50  0001 C CNN
F 3 "~" H 3400 7500 50  0001 C CNN
	1    3400 7500
	1    0    0    -1  
$EndComp
Text Label 4950 6900 0    50   ~ 0
3.3V
Text Label 4950 7000 0    50   ~ 0
LED_CLO
Text Label 4950 7100 0    50   ~ 0
LED_MID
Text Label 4950 7200 0    50   ~ 0
LED_FAR
Text Label 4950 7300 0    50   ~ 0
BUZZER
Text Label 6350 7550 0    50   ~ 0
LED_BR
Text Label 6350 7300 0    50   ~ 0
LED_BL
$Comp
L Connector:Conn_01x06_Male J5
U 1 1 6349C652
P 4750 7100
F 0 "J5" H 4858 7481 50  0000 C CNN
F 1 "Conn_01x06_Male" H 4750 6650 50  0000 C CNN
F 2 "Connector_PinHeader_2.54mm:PinHeader_1x06_P2.54mm_Vertical" H 4750 7100 50  0001 C CNN
F 3 "~" H 4750 7100 50  0001 C CNN
	1    4750 7100
	1    0    0    -1  
$EndComp
$Comp
L power:GND #PWR0119
U 1 1 6349D5A9
P 4950 7400
F 0 "#PWR0119" H 4950 7150 50  0001 C CNN
F 1 "GND" H 4955 7227 50  0000 C CNN
F 2 "" H 4950 7400 50  0001 C CNN
F 3 "" H 4950 7400 50  0001 C CNN
	1    4950 7400
	0    -1   -1   0   
$EndComp
$Comp
L Connector:Conn_01x01_Male J6
U 1 1 6349FD70
P 6150 7300
F 0 "J6" H 6150 7450 50  0000 C CNN
F 1 "Conn_01x01_Male" H 5700 7300 50  0000 C CNN
F 2 "Connector_PinHeader_2.54mm:PinHeader_1x01_P2.54mm_Vertical" H 6150 7300 50  0001 C CNN
F 3 "~" H 6150 7300 50  0001 C CNN
	1    6150 7300
	1    0    0    -1  
$EndComp
$Comp
L Connector:Conn_01x01_Male J7
U 1 1 634A0334
P 6150 7550
F 0 "J7" H 6150 7700 50  0000 C CNN
F 1 "Conn_01x01_Male" H 5700 7550 50  0000 C CNN
F 2 "Connector_PinHeader_2.54mm:PinHeader_1x01_P2.54mm_Vertical" H 6150 7550 50  0001 C CNN
F 3 "~" H 6150 7550 50  0001 C CNN
	1    6150 7550
	1    0    0    -1  
$EndComp
Wire Wire Line
	1200 3300 1450 3300
Connection ~ 1450 3300
Wire Wire Line
	1450 3300 1750 3300
Wire Wire Line
	4300 2250 4200 2250
Wire Wire Line
	4200 2250 4200 2400
Connection ~ 4300 2250
$Comp
L Regulator_Linear:NCP1117-3.3_TO252 U1
U 1 1 63448B80
P 1700 1250
F 0 "U1" H 1700 1492 50  0000 C CNN
F 1 "NCP1117-3.3_TO252" H 1700 1401 50  0000 C CNN
F 2 "Package_TO_SOT_SMD:TO-252-2" H 1700 1475 50  0001 C CNN
F 3 "http://www.onsemi.com/pub_link/Collateral/NCP1117-D.PDF" H 1700 1250 50  0001 C CNN
	1    1700 1250
	1    0    0    -1  
$EndComp
$Comp
L Device:Q_NMOS_GSD Q1
U 1 1 635C127B
P 6350 4000
F 0 "Q1" H 6554 4046 50  0000 L CNN
F 1 "Q_NMOS_GSD" H 6554 3955 50  0000 L CNN
F 2 "DMG1012UW-7:SOT65P210X100-3N" H 6550 4100 50  0001 C CNN
F 3 "~" H 6350 4000 50  0001 C CNN
	1    6350 4000
	1    0    0    -1  
$EndComp
$Comp
L Device:Q_NMOS_GSD Q4
U 1 1 635C3682
P 8100 4000
F 0 "Q4" H 8304 4046 50  0000 L CNN
F 1 "Q_NMOS_GSD" H 8304 3955 50  0000 L CNN
F 2 "DMG1012UW-7:SOT65P210X100-3N" H 8300 4100 50  0001 C CNN
F 3 "~" H 8100 4000 50  0001 C CNN
	1    8100 4000
	1    0    0    -1  
$EndComp
$Comp
L Device:Q_NMOS_GSD Q6
U 1 1 635C44CF
P 9700 4000
F 0 "Q6" H 9904 4046 50  0000 L CNN
F 1 "Q_NMOS_GSD" H 9904 3955 50  0000 L CNN
F 2 "DMG1012UW-7:SOT65P210X100-3N" H 9900 4100 50  0001 C CNN
F 3 "~" H 9700 4000 50  0001 C CNN
	1    9700 4000
	1    0    0    -1  
$EndComp
$Comp
L Device:Q_NMOS_GSD Q5
U 1 1 635C56D6
P 9300 1800
F 0 "Q5" H 9504 1846 50  0000 L CNN
F 1 "Q_NMOS_GSD" H 9504 1755 50  0000 L CNN
F 2 "DMG1012UW-7:SOT65P210X100-3N" H 9500 1900 50  0001 C CNN
F 3 "~" H 9300 1800 50  0001 C CNN
	1    9300 1800
	1    0    0    -1  
$EndComp
$Comp
L Device:Q_NMOS_GSD Q3
U 1 1 635C62B7
P 6400 1900
F 0 "Q3" H 6604 1946 50  0000 L CNN
F 1 "Q_NMOS_GSD" H 6604 1855 50  0000 L CNN
F 2 "DMG1012UW-7:SOT65P210X100-3N" H 6600 2000 50  0001 C CNN
F 3 "~" H 6400 1900 50  0001 C CNN
	1    6400 1900
	1    0    0    -1  
$EndComp
$Comp
L Device:Q_NMOS_GSD Q2
U 1 1 635C720C
P 6350 6300
F 0 "Q2" H 6554 6346 50  0000 L CNN
F 1 "Q_NMOS_GSD" H 6554 6255 50  0000 L CNN
F 2 "DMG1012UW-7:SOT65P210X100-3N" H 6550 6400 50  0001 C CNN
F 3 "~" H 6350 6300 50  0001 C CNN
	1    6350 6300
	1    0    0    -1  
$EndComp
Wire Wire Line
	6000 6300 6150 6300
Connection ~ 6000 6300
Text Label 2000 5550 0    50   ~ 0
RPI_GND
$Comp
L Connector:Conn_01x02_Male J8
U 1 1 63622E2A
P 2450 7300
F 0 "J8" H 2558 7481 50  0000 C CNN
F 1 "Conn_01x02_Male" H 2550 7100 50  0000 C CNN
F 2 "Connector_PinHeader_2.54mm:PinHeader_1x02_P2.54mm_Vertical" H 2450 7300 50  0001 C CNN
F 3 "~" H 2450 7300 50  0001 C CNN
	1    2450 7300
	1    0    0    -1  
$EndComp
Text Label 2650 7300 0    50   ~ 0
RPI_GND
$Comp
L power:GND #PWR0120
U 1 1 636246FB
P 2650 7400
F 0 "#PWR0120" H 2650 7150 50  0001 C CNN
F 1 "GND" H 2655 7227 50  0000 C CNN
F 2 "" H 2650 7400 50  0001 C CNN
F 3 "" H 2650 7400 50  0001 C CNN
	1    2650 7400
	0    -1   -1   0   
$EndComp
$Comp
L Device:LED D17
U 1 1 63625623
P 4950 1450
F 0 "D17" V 4989 1332 50  0000 R CNN
F 1 "LED" V 4898 1332 50  0000 R CNN
F 2 "LED_SMD:LED_0805_2012Metric_Pad1.15x1.40mm_HandSolder" H 4950 1450 50  0001 C CNN
F 3 "~" H 4950 1450 50  0001 C CNN
	1    4950 1450
	0    -1   -1   0   
$EndComp
Text Label 4950 850  0    50   ~ 0
3.3V
$Comp
L Device:R R25
U 1 1 63626C0D
P 4950 1150
F 0 "R25" H 5020 1196 50  0000 L CNN
F 1 "15" H 5020 1105 50  0000 L CNN
F 2 "Resistor_SMD:R_0805_2012Metric_Pad1.20x1.40mm_HandSolder" V 4880 1150 50  0001 C CNN
F 3 "~" H 4950 1150 50  0001 C CNN
	1    4950 1150
	1    0    0    -1  
$EndComp
Wire Wire Line
	4950 850  4950 1000
$Comp
L power:GND #PWR0121
U 1 1 636308B5
P 4950 1750
F 0 "#PWR0121" H 4950 1500 50  0001 C CNN
F 1 "GND" H 4955 1577 50  0000 C CNN
F 2 "" H 4950 1750 50  0001 C CNN
F 3 "" H 4950 1750 50  0001 C CNN
	1    4950 1750
	1    0    0    -1  
$EndComp
Wire Wire Line
	4950 1750 4950 1600
Text Label 10000 6050 0    50   ~ 0
GPIO_3
Text Label 10000 5950 0    50   ~ 0
GPIO_4
$Comp
L Connector:Conn_01x07_Male J4
U 1 1 6364B440
P 9800 5750
F 0 "J4" H 9908 6231 50  0000 C CNN
F 1 "Conn_01x07_Male" H 9908 6140 50  0000 C CNN
F 2 "Connector_PinHeader_2.54mm:PinHeader_1x07_P2.54mm_Vertical" H 9800 5750 50  0001 C CNN
F 3 "~" H 9800 5750 50  0001 C CNN
	1    9800 5750
	1    0    0    -1  
$EndComp
Text Label 10000 5750 0    50   ~ 0
GPIO_15
Text Label 10000 5850 0    50   ~ 0
GPIO_14
Text Label 10000 5650 0    50   ~ 0
GPIO_18
$Comp
L Connector:Conn_01x03_Male J9
U 1 1 636725A5
P 2350 2650
F 0 "J9" H 2458 2931 50  0000 C CNN
F 1 "Conn_01x03_Male" H 2458 2840 50  0000 C CNN
F 2 "Connector_PinHeader_2.54mm:PinHeader_1x03_P2.54mm_Vertical" H 2350 2650 50  0001 C CNN
F 3 "~" H 2350 2650 50  0001 C CNN
	1    2350 2650
	1    0    0    -1  
$EndComp
$Comp
L Connector:Conn_01x03_Male J10
U 1 1 63674189
P 2350 3350
F 0 "J10" H 2458 3631 50  0000 C CNN
F 1 "Conn_01x03_Male" H 2458 3540 50  0000 C CNN
F 2 "Connector_PinHeader_2.54mm:PinHeader_1x03_P2.54mm_Vertical" H 2350 3350 50  0001 C CNN
F 3 "~" H 2350 3350 50  0001 C CNN
	1    2350 3350
	1    0    0    -1  
$EndComp
$Comp
L power:GND #PWR0106
U 1 1 63674828
P 2550 3450
F 0 "#PWR0106" H 2550 3200 50  0001 C CNN
F 1 "GND" H 2555 3277 50  0000 C CNN
F 2 "" H 2550 3450 50  0001 C CNN
F 3 "" H 2550 3450 50  0001 C CNN
	1    2550 3450
	0    -1   -1   0   
$EndComp
$Comp
L power:GND #PWR0118
U 1 1 63675661
P 2550 2750
F 0 "#PWR0118" H 2550 2500 50  0001 C CNN
F 1 "GND" H 2555 2577 50  0000 C CNN
F 2 "" H 2550 2750 50  0001 C CNN
F 3 "" H 2550 2750 50  0001 C CNN
	1    2550 2750
	0    -1   -1   0   
$EndComp
Text Label 2550 2550 0    50   ~ 0
3.3V
Text Label 2550 3250 0    50   ~ 0
3.3V
Text Label 2550 2650 0    50   ~ 0
BOOT0
Text Label 3700 2800 2    50   ~ 0
BOOT0
Text Label 2550 3350 0    50   ~ 0
BOOT1
Text Label 3700 3900 2    50   ~ 0
BOOT1
$Comp
L Connector:Conn_01x02_Female J11
U 1 1 636AA44D
P 10600 5000
F 0 "J11" H 10628 4976 50  0000 L CNN
F 1 "Conn_01x02_Female" H 10350 4750 50  0000 L CNN
F 2 "Connector_JST:JST_PH_S2B-PH-K_1x02_P2.00mm_Horizontal" H 10600 5000 50  0001 C CNN
F 3 "~" H 10600 5000 50  0001 C CNN
	1    10600 5000
	1    0    0    -1  
$EndComp
Text Label 10400 5000 2    50   ~ 0
5V
$Comp
L power:GND #PWR0122
U 1 1 636AB013
P 10400 5100
F 0 "#PWR0122" H 10400 4850 50  0001 C CNN
F 1 "GND" V 10405 4972 50  0000 R CNN
F 2 "" H 10400 5100 50  0001 C CNN
F 3 "" H 10400 5100 50  0001 C CNN
	1    10400 5100
	0    1    1    0   
$EndComp
$EndSCHEMATC
