%!PS-Adobe-3.0
%%Creator: PCBNEW
%%CreationDate: Thu Oct 06 00:13:36 2022
%%Title: C:\Users\Jacob\Documents\ece-445-project-cyclist-assist-system\dashboard_pcb\gerber_445\dashboard_pcb-PTH-drl_map.ps
%%Pages: 1
%%PageOrder: Ascend
%%BoundingBox: 0 0 596 842
%%DocumentMedia: A4 595 842 0 () ()
%%Orientation: Landscape
%%EndComments
%%BeginProlog
/line { newpath moveto lineto stroke } bind def
/cir0 { newpath 0 360 arc stroke } bind def
/cir1 { newpath 0 360 arc gsave fill grestore stroke } bind def
/cir2 { newpath 0 360 arc gsave fill grestore stroke } bind def
/arc0 { newpath arc stroke } bind def
/arc1 { newpath 4 index 4 index moveto arc closepath gsave fill
    grestore stroke } bind def
/arc2 { newpath 4 index 4 index moveto arc closepath gsave fill
    grestore stroke } bind def
/poly0 { stroke } bind def
/poly1 { closepath gsave fill grestore stroke } bind def
/poly2 { closepath gsave fill grestore stroke } bind def
/rect0 { rectstroke } bind def
/rect1 { rectfill } bind def
/rect2 { rectfill } bind def
/linemode0 { 0 setlinecap 0 setlinejoin 0 setlinewidth } bind def
/linemode1 { 1 setlinecap 1 setlinejoin } bind def
/dashedline { [200] 100 setdash } bind def
/solidline { [] 0 setdash } bind def
/phantomshow { moveto
    /KicadFont findfont 0.000001 scalefont setfont
    show } bind def
/textshow { gsave
    findfont exch scalefont setfont concat 1 scale 0 0 moveto show
    } bind def
/reencodefont {
  findfont dup length dict begin
  { 1 index /FID ne
    { def }
    { pop pop } ifelse
  } forall
  /Encoding ISOLatin1Encoding def
  currentdict
  end } bind def
/KicadFont /Helvetica reencodefont definefont pop
/KicadFont-Bold /Helvetica-Bold reencodefont definefont pop
/KicadFont-Oblique /Helvetica-Oblique reencodefont definefont pop
/KicadFont-BoldOblique /Helvetica-BoldOblique reencodefont definefont pop
%%EndProlog
%%Page: 1 1
%%BeginPageSetup
gsave
0.0072 0.0072 scale
linemode1
82680 0 translate 90 rotate
44.3607 setlinewidth
%%EndPageSetup
0 0 0 setrgbcolor
34.9297 setlinewidth
newpath
73769.4 78725.5 moveto
73769.4 37026.5 lineto
stroke
0 0 0 setrgbcolor
newpath
43160.6 78725.5 moveto
73769.4 78725.5 lineto
stroke
0 0 0 setrgbcolor
newpath
43160.6 37026.5 moveto
43160.6 78725.5 lineto
stroke
0 0 0 setrgbcolor
newpath
73769.4 37026.5 moveto
43160.6 37026.5 lineto
stroke
78.7399 setlinewidth
newpath
45530.5 64821.8 moveto
45670.3 64682 lineto
stroke
newpath
45670.3 64821.8 moveto
45530.5 64682 lineto
stroke
newpath
45974.1 56393.2 moveto
46113.9 56253.5 lineto
stroke
newpath
46113.9 56393.2 moveto
45974.1 56253.5 lineto
stroke
newpath
46018.5 48186.5 moveto
46158.2 48046.8 lineto
stroke
newpath
46158.2 48186.5 moveto
46018.5 48046.8 lineto
stroke
newpath
46195.9 51070 moveto
46335.7 50930.2 lineto
stroke
newpath
46335.7 51070 moveto
46195.9 50930.2 lineto
stroke
newpath
46373.4 40778.3 moveto
46513.1 40638.6 lineto
stroke
newpath
46513.1 40778.3 moveto
46373.4 40638.6 lineto
stroke
newpath
46817 52888.7 moveto
46956.7 52749 lineto
stroke
newpath
46956.7 52888.7 moveto
46817 52749 lineto
stroke
newpath
48147.8 57901.5 moveto
48287.5 57761.8 lineto
stroke
newpath
48287.5 57901.5 moveto
48147.8 57761.8 lineto
stroke
newpath
48946.3 73560.8 moveto
49086 73421.1 lineto
stroke
newpath
49086 73560.8 moveto
48946.3 73421.1 lineto
stroke
newpath
49567.4 67350.3 moveto
49707.1 67210.6 lineto
stroke
newpath
49707.1 67350.3 moveto
49567.4 67210.6 lineto
stroke
newpath
49744.8 51735.4 moveto
49884.5 51595.6 lineto
stroke
newpath
49884.5 51735.4 moveto
49744.8 51595.6 lineto
stroke
newpath
49922.2 66995.4 moveto
50062 66855.7 lineto
stroke
newpath
50062 66995.4 moveto
49922.2 66855.7 lineto
stroke
newpath
49922.2 66551.8 moveto
50062 66412.1 lineto
stroke
newpath
50062 66551.8 moveto
49922.2 66412.1 lineto
stroke
newpath
50011 54840.6 moveto
50150.7 54700.9 lineto
stroke
newpath
50150.7 54840.6 moveto
50011 54700.9 lineto
stroke
newpath
50057 64557.2 moveto
50196.7 64417.5 lineto
stroke
newpath
50196.7 64557.2 moveto
50057 64417.5 lineto
stroke
newpath
50188.4 66285.7 moveto
50328.1 66146 lineto
stroke
newpath
50328.1 66285.7 moveto
50188.4 66146 lineto
stroke
newpath
50543.3 66019.5 moveto
50683 65879.8 lineto
stroke
newpath
50683 66019.5 moveto
50543.3 65879.8 lineto
stroke
newpath
50632 74093.2 moveto
50771.7 73953.4 lineto
stroke
newpath
50771.7 74093.2 moveto
50632 73953.4 lineto
stroke
newpath
50632 64600 moveto
50771.7 64460.2 lineto
stroke
newpath
50771.7 64600 moveto
50632 64460.2 lineto
stroke
newpath
51120 77819.5 moveto
51259.7 77679.7 lineto
stroke
newpath
51259.7 77819.5 moveto
51120 77679.7 lineto
stroke
newpath
51519.2 71697.7 moveto
51659 71558 lineto
stroke
newpath
51659 71697.7 moveto
51519.2 71558 lineto
stroke
newpath
51896.3 59365.4 moveto
52036 59225.7 lineto
stroke
newpath
52036 59365.4 moveto
51896.3 59225.7 lineto
stroke
newpath
52051.6 77686.4 moveto
52191.3 77546.7 lineto
stroke
newpath
52191.3 77686.4 moveto
52051.6 77546.7 lineto
stroke
newpath
53249.3 59343.2 moveto
53389 59203.5 lineto
stroke
newpath
53389 59343.2 moveto
53249.3 59203.5 lineto
stroke
newpath
53293.7 77553.3 moveto
53433.4 77413.6 lineto
stroke
newpath
53433.4 77553.3 moveto
53293.7 77413.6 lineto
stroke
newpath
53737.3 59809 moveto
53877 59669.3 lineto
stroke
newpath
53877 59809 moveto
53737.3 59669.3 lineto
stroke
newpath
54047.8 58833.1 moveto
54187.5 58693.4 lineto
stroke
newpath
54187.5 58833.1 moveto
54047.8 58693.4 lineto
stroke
newpath
54424.9 56969.9 moveto
54564.6 56830.2 lineto
stroke
newpath
54564.6 56969.9 moveto
54424.9 56830.2 lineto
stroke
newpath
55378.6 61317.3 moveto
55518.3 61177.6 lineto
stroke
newpath
55518.3 61317.3 moveto
55378.6 61177.6 lineto
stroke
newpath
55733.5 69479.6 moveto
55873.2 69339.9 lineto
stroke
newpath
55873.2 69479.6 moveto
55733.5 69339.9 lineto
stroke
newpath
55866.6 62204.5 moveto
56006.3 62064.8 lineto
stroke
newpath
56006.3 62204.5 moveto
55866.6 62064.8 lineto
stroke
newpath
56310.2 61938.3 moveto
56449.9 61798.6 lineto
stroke
newpath
56449.9 61938.3 moveto
56310.2 61798.6 lineto
stroke
newpath
56665.1 61672.2 moveto
56804.8 61532.4 lineto
stroke
newpath
56804.8 61672.2 moveto
56665.1 61532.4 lineto
stroke
newpath
56864.7 56992.1 moveto
57004.4 56852.4 lineto
stroke
newpath
57004.4 56992.1 moveto
56864.7 56852.4 lineto
stroke
newpath
57973.7 56969.9 moveto
58113.4 56830.2 lineto
stroke
newpath
58113.4 56969.9 moveto
57973.7 56830.2 lineto
stroke
newpath
58616.9 55284.2 moveto
58756.7 55144.5 lineto
stroke
newpath
58756.7 55284.2 moveto
58616.9 55144.5 lineto
stroke
newpath
58750 59032.7 moveto
58889.7 58893 lineto
stroke
newpath
58889.7 59032.7 moveto
58750 58893 lineto
stroke
newpath
58816.6 56326.7 moveto
58956.3 56187 lineto
stroke
newpath
58956.3 56326.7 moveto
58816.6 56187 lineto
stroke
newpath
59947.8 57724.1 moveto
60087.5 57584.3 lineto
stroke
newpath
60087.5 57724.1 moveto
59947.8 57584.3 lineto
stroke
newpath
59947.8 53731.6 moveto
60087.5 53591.9 lineto
stroke
newpath
60087.5 53731.6 moveto
59947.8 53591.9 lineto
stroke
newpath
60502.3 55727.8 moveto
60642 55588.1 lineto
stroke
newpath
60642 55727.8 moveto
60502.3 55588.1 lineto
stroke
newpath
60746.3 59409.8 moveto
60886 59270 lineto
stroke
newpath
60886 59409.8 moveto
60746.3 59270 lineto
stroke
newpath
61278.6 57058.6 moveto
61418.3 56918.9 lineto
stroke
newpath
61418.3 57058.6 moveto
61278.6 56918.9 lineto
stroke
newpath
61278.6 56615 moveto
61418.3 56475.3 lineto
stroke
newpath
61418.3 56615 moveto
61278.6 56475.3 lineto
stroke
newpath
61722.2 73472.1 moveto
61861.9 73332.4 lineto
stroke
newpath
61861.9 73472.1 moveto
61722.2 73332.4 lineto
stroke
newpath
62343.2 77109.7 moveto
62483 76970 lineto
stroke
newpath
62483 77109.7 moveto
62343.2 76970 lineto
stroke
newpath
62422.9 57020.9 moveto
62562.7 56881.2 lineto
stroke
newpath
62562.7 57020.9 moveto
62422.9 56881.2 lineto
stroke
newpath
63053 61272.9 moveto
63192.7 61133.2 lineto
stroke
newpath
63192.7 61272.9 moveto
63053 61133.2 lineto
stroke
newpath
63851.5 75956.3 moveto
63991.2 75816.6 lineto
stroke
newpath
63991.2 75956.3 moveto
63851.5 75816.6 lineto
stroke
newpath
63940.2 52179 moveto
64079.9 52039.3 lineto
stroke
newpath
64079.9 52179 moveto
63940.2 52039.3 lineto
stroke
newpath
64383.8 75867.6 moveto
64523.6 75727.9 lineto
stroke
newpath
64523.6 75867.6 moveto
64383.8 75727.9 lineto
stroke
newpath
64383.8 55727.8 moveto
64523.6 55588.1 lineto
stroke
newpath
64523.6 55727.8 moveto
64383.8 55588.1 lineto
stroke
newpath
65492.9 75468.3 moveto
65632.6 75328.6 lineto
stroke
newpath
65632.6 75468.3 moveto
65492.9 75328.6 lineto
stroke
newpath
65492.9 65265.4 moveto
65632.6 65125.7 lineto
stroke
newpath
65632.6 65265.4 moveto
65492.9 65125.7 lineto
stroke
newpath
65492.9 61272.9 moveto
65632.6 61133.2 lineto
stroke
newpath
65632.6 61272.9 moveto
65492.9 61133.2 lineto
stroke
newpath
65714.7 58655.6 moveto
65854.4 58515.9 lineto
stroke
newpath
65854.4 58655.6 moveto
65714.7 58515.9 lineto
stroke
newpath
66158.3 67261.6 moveto
66298 67121.9 lineto
stroke
newpath
66298 67261.6 moveto
66158.3 67121.9 lineto
stroke
newpath
67245.1 69923.2 moveto
67384.8 69783.5 lineto
stroke
newpath
67384.8 69923.2 moveto
67245.1 69783.5 lineto
stroke
newpath
67245.1 67638.7 moveto
67384.8 67499 lineto
stroke
newpath
67384.8 67638.7 moveto
67245.1 67499 lineto
stroke
newpath
67267.3 76355.5 moveto
67407 76215.8 lineto
stroke
newpath
67407 76355.5 moveto
67267.3 76215.8 lineto
stroke
newpath
67267.3 74802.9 moveto
67407 74663.2 lineto
stroke
newpath
67407 74802.9 moveto
67267.3 74663.2 lineto
stroke
newpath
68021.4 45258.7 moveto
68161.1 45119 lineto
stroke
newpath
68161.1 45258.7 moveto
68021.4 45119 lineto
stroke
newpath
68331.9 40423.4 moveto
68471.7 40283.7 lineto
stroke
newpath
68471.7 40423.4 moveto
68331.9 40283.7 lineto
stroke
newpath
68376.3 53288 moveto
68516 53148.3 lineto
stroke
newpath
68516 53288 moveto
68376.3 53148.3 lineto
stroke
newpath
71259.7 56393.2 moveto
71399.5 56253.5 lineto
stroke
newpath
71399.5 56393.2 moveto
71259.7 56253.5 lineto
stroke
newpath
71481.5 73693.9 moveto
71621.3 73554.2 lineto
stroke
newpath
71621.3 73693.9 moveto
71481.5 73554.2 lineto
stroke
56247 55436.2 139.719 cir0
56247 52781.5 139.719 cir0
newpath
48040.2 44946.8 moveto
48040.2 44632.4 lineto
stroke
newpath
47883.1 44789.6 moveto
48197.4 44789.6 lineto
stroke
newpath
48927.5 44946.8 moveto
48927.5 44632.4 lineto
stroke
newpath
48770.3 44789.6 moveto
49084.6 44789.6 lineto
stroke
newpath
49459.8 58920.4 moveto
49459.8 58606 lineto
stroke
newpath
49302.6 58763.2 moveto
49617 58763.2 lineto
stroke
newpath
50347 58920.4 moveto
50347 58606 lineto
stroke
newpath
50189.8 58763.2 moveto
50504.2 58763.2 lineto
stroke
newpath
50701.9 46721.2 moveto
50701.9 46406.8 lineto
stroke
newpath
50544.7 46564 moveto
50859.1 46564 lineto
stroke
newpath
50701.9 42506.9 moveto
50701.9 42192.6 lineto
stroke
newpath
50544.7 42349.8 moveto
50859.1 42349.8 lineto
stroke
newpath
51589.1 46721.2 moveto
51589.1 46406.8 lineto
stroke
newpath
51431.9 46564 moveto
51746.3 46564 lineto
stroke
newpath
51589.1 42506.9 moveto
51589.1 42192.6 lineto
stroke
newpath
51431.9 42349.8 moveto
51746.3 42349.8 lineto
stroke
newpath
53141.7 44946.8 moveto
53141.7 44632.4 lineto
stroke
newpath
52984.5 44789.6 moveto
53298.9 44789.6 lineto
stroke
newpath
53363.5 49161 moveto
53363.5 48846.7 lineto
stroke
newpath
53206.3 49003.9 moveto
53520.7 49003.9 lineto
stroke
newpath
54028.9 44946.8 moveto
54028.9 44632.4 lineto
stroke
newpath
53871.7 44789.6 moveto
54186.1 44789.6 lineto
stroke
newpath
54028.9 41176.1 moveto
54028.9 40861.8 lineto
stroke
newpath
53871.7 41018.9 moveto
54186.1 41018.9 lineto
stroke
newpath
54250.7 49161 moveto
54250.7 48846.7 lineto
stroke
newpath
54093.6 49003.9 moveto
54407.9 49003.9 lineto
stroke
newpath
54916.1 41176.1 moveto
54916.1 40861.8 lineto
stroke
newpath
54759 41018.9 moveto
55073.3 41018.9 lineto
stroke
newpath
55803.4 48052 moveto
55803.4 47737.7 lineto
stroke
newpath
55646.2 47894.8 moveto
55960.5 47894.8 lineto
stroke
newpath
55803.4 44059.6 moveto
55803.4 43745.2 lineto
stroke
newpath
55646.2 43902.4 moveto
55960.5 43902.4 lineto
stroke
newpath
56690.6 48052 moveto
56690.6 47737.7 lineto
stroke
newpath
56533.4 47894.8 moveto
56847.8 47894.8 lineto
stroke
newpath
56690.6 44059.6 moveto
56690.6 43745.2 lineto
stroke
newpath
56533.4 43902.4 moveto
56847.8 43902.4 lineto
stroke
newpath
57577.8 41176.1 moveto
57577.8 40861.8 lineto
stroke
newpath
57420.6 41018.9 moveto
57735 41018.9 lineto
stroke
newpath
58243.2 49161 moveto
58243.2 48846.7 lineto
stroke
newpath
58086 49003.9 moveto
58400.4 49003.9 lineto
stroke
newpath
58465 44946.8 moveto
58465 44632.4 lineto
stroke
newpath
58307.8 44789.6 moveto
58622.2 44789.6 lineto
stroke
newpath
58465 41176.1 moveto
58465 40861.8 lineto
stroke
newpath
58307.8 41018.9 moveto
58622.2 41018.9 lineto
stroke
newpath
59130.4 49161 moveto
59130.4 48846.7 lineto
stroke
newpath
58973.2 49003.9 moveto
59287.6 49003.9 lineto
stroke
newpath
59352.2 44946.8 moveto
59352.2 44632.4 lineto
stroke
newpath
59195 44789.6 moveto
59509.4 44789.6 lineto
stroke
newpath
60904.8 46721.2 moveto
60904.8 46406.8 lineto
stroke
newpath
60747.7 46564 moveto
61062 46564 lineto
stroke
newpath
60904.8 42285.1 moveto
60904.8 41970.8 lineto
stroke
newpath
60747.7 42128 moveto
61062 42128 lineto
stroke
newpath
61792.1 46721.2 moveto
61792.1 46406.8 lineto
stroke
newpath
61634.9 46564 moveto
61949.2 46564 lineto
stroke
newpath
61792.1 42285.1 moveto
61792.1 41970.8 lineto
stroke
newpath
61634.9 42128 moveto
61949.2 42128 lineto
stroke
newpath
62146.9 58920.4 moveto
62146.9 58606 lineto
stroke
newpath
61989.8 58763.2 moveto
62304.1 58763.2 lineto
stroke
newpath
63034.2 58920.4 moveto
63034.2 58606 lineto
stroke
newpath
62877 58763.2 moveto
63191.3 58763.2 lineto
stroke
newpath
63566.5 44725 moveto
63566.5 44410.6 lineto
stroke
newpath
63409.3 44567.8 moveto
63723.7 44567.8 lineto
stroke
newpath
64453.7 44725 moveto
64453.7 44410.6 lineto
stroke
newpath
64296.5 44567.8 moveto
64610.9 44567.8 lineto
stroke
newpath
44703.6 54913.4 moveto
44703.6 55160.4 lineto
44456.6 55160.4 lineto
44456.6 54913.4 lineto
44703.6 54913.4 lineto
poly0
newpath
44703.6 54026.2 moveto
44703.6 54273.2 lineto
44456.6 54273.2 lineto
44456.6 54026.2 lineto
44703.6 54026.2 lineto
poly0
newpath
44703.6 53139 moveto
44703.6 53386 lineto
44456.6 53386 lineto
44456.6 53139 lineto
44703.6 53139 lineto
poly0
newpath
44703.6 52251.8 moveto
44703.6 52498.8 lineto
44456.6 52498.8 lineto
44456.6 52251.8 lineto
44703.6 52251.8 lineto
poly0
newpath
45945.7 76162.2 moveto
45945.7 76409.2 lineto
45698.7 76409.2 lineto
45698.7 76162.2 lineto
45945.7 76162.2 lineto
poly0
newpath
45945.7 75275 moveto
45945.7 75522 lineto
45698.7 75522 lineto
45698.7 75275 lineto
45945.7 75275 lineto
poly0
newpath
46145.3 51919.1 moveto
46145.3 52166.1 lineto
45898.3 52166.1 lineto
45898.3 51919.1 lineto
46145.3 51919.1 lineto
poly0
newpath
46832.9 76162.2 moveto
46832.9 76409.2 lineto
46585.9 76409.2 lineto
46585.9 76162.2 lineto
46832.9 76162.2 lineto
poly0
newpath
46832.9 75275 moveto
46832.9 75522 lineto
46585.9 75522 lineto
46585.9 75275 lineto
46832.9 75275 lineto
poly0
newpath
47720.1 76162.2 moveto
47720.1 76409.2 lineto
47473.1 76409.2 lineto
47473.1 76162.2 lineto
47720.1 76162.2 lineto
poly0
newpath
47720.1 75275 moveto
47720.1 75522 lineto
47473.1 75522 lineto
47473.1 75275 lineto
47720.1 75275 lineto
poly0
newpath
48607.3 76162.2 moveto
48607.3 76409.2 lineto
48360.3 76409.2 lineto
48360.3 76162.2 lineto
48607.3 76162.2 lineto
poly0
newpath
48607.3 75275 moveto
48607.3 75522 lineto
48360.3 75522 lineto
48360.3 75275 lineto
48607.3 75275 lineto
poly0
newpath
49494.6 76162.2 moveto
49494.6 76409.2 lineto
49247.6 76409.2 lineto
49247.6 76162.2 lineto
49494.6 76162.2 lineto
poly0
newpath
49494.6 75275 moveto
49494.6 75522 lineto
49247.6 75522 lineto
49247.6 75275 lineto
49494.6 75275 lineto
poly0
newpath
50381.8 76162.2 moveto
50381.8 76409.2 lineto
50134.8 76409.2 lineto
50134.8 76162.2 lineto
50381.8 76162.2 lineto
poly0
newpath
50381.8 75275 moveto
50381.8 75522 lineto
50134.8 75522 lineto
50134.8 75275 lineto
50381.8 75275 lineto
poly0
newpath
51269 76162.2 moveto
51269 76409.2 lineto
51022 76409.2 lineto
51022 76162.2 lineto
51269 76162.2 lineto
poly0
newpath
51269 75275 moveto
51269 75522 lineto
51022 75522 lineto
51022 75275 lineto
51269 75275 lineto
poly0
newpath
51934.4 65515.6 moveto
51934.4 65762.6 lineto
51687.4 65762.6 lineto
51687.4 65515.6 lineto
51934.4 65515.6 lineto
poly0
newpath
51934.4 64628.4 moveto
51934.4 64875.4 lineto
51687.4 64875.4 lineto
51687.4 64628.4 lineto
51934.4 64628.4 lineto
poly0
newpath
52156.2 76162.2 moveto
52156.2 76409.2 lineto
51909.2 76409.2 lineto
51909.2 76162.2 lineto
52156.2 76162.2 lineto
poly0
newpath
52156.2 75275 moveto
52156.2 75522 lineto
51909.2 75522 lineto
51909.2 75275 lineto
52156.2 75275 lineto
poly0
newpath
52821.6 65515.6 moveto
52821.6 65762.6 lineto
52574.6 65762.6 lineto
52574.6 65515.6 lineto
52821.6 65515.6 lineto
poly0
newpath
52821.6 64628.4 moveto
52821.6 64875.4 lineto
52574.6 64875.4 lineto
52574.6 64628.4 lineto
52821.6 64628.4 lineto
poly0
newpath
53043.4 76162.2 moveto
53043.4 76409.2 lineto
52796.4 76409.2 lineto
52796.4 76162.2 lineto
53043.4 76162.2 lineto
poly0
newpath
53043.4 75275 moveto
53043.4 75522 lineto
52796.4 75522 lineto
52796.4 75275 lineto
53043.4 75275 lineto
poly0
newpath
53708.8 65515.6 moveto
53708.8 65762.6 lineto
53461.8 65762.6 lineto
53461.8 65515.6 lineto
53708.8 65515.6 lineto
poly0
newpath
53708.8 64628.4 moveto
53708.8 64875.4 lineto
53461.8 64875.4 lineto
53461.8 64628.4 lineto
53708.8 64628.4 lineto
poly0
newpath
53930.6 76162.2 moveto
53930.6 76409.2 lineto
53683.6 76409.2 lineto
53683.6 76162.2 lineto
53930.6 76162.2 lineto
poly0
newpath
53930.6 75275 moveto
53930.6 75522 lineto
53683.6 75522 lineto
53683.6 75275 lineto
53930.6 75275 lineto
poly0
newpath
54596 65515.6 moveto
54596 65762.6 lineto
54349 65762.6 lineto
54349 65515.6 lineto
54596 65515.6 lineto
poly0
newpath
54596 64628.4 moveto
54596 64875.4 lineto
54349 64875.4 lineto
54349 64628.4 lineto
54596 64628.4 lineto
poly0
newpath
54817.8 76162.2 moveto
54817.8 76409.2 lineto
54570.8 76409.2 lineto
54570.8 76162.2 lineto
54817.8 76162.2 lineto
poly0
newpath
54817.8 75275 moveto
54817.8 75522 lineto
54570.8 75522 lineto
54570.8 75275 lineto
54817.8 75275 lineto
poly0
newpath
55483.2 65515.6 moveto
55483.2 65762.6 lineto
55236.3 65762.6 lineto
55236.3 65515.6 lineto
55483.2 65515.6 lineto
poly0
newpath
55483.2 64628.4 moveto
55483.2 64875.4 lineto
55236.3 64875.4 lineto
55236.3 64628.4 lineto
55483.2 64628.4 lineto
poly0
newpath
55705.1 76162.2 moveto
55705.1 76409.2 lineto
55458.1 76409.2 lineto
55458.1 76162.2 lineto
55705.1 76162.2 lineto
poly0
newpath
55705.1 75275 moveto
55705.1 75522 lineto
55458.1 75522 lineto
55458.1 75275 lineto
55705.1 75275 lineto
poly0
newpath
56370.5 65515.6 moveto
56370.5 65762.6 lineto
56123.5 65762.6 lineto
56123.5 65515.6 lineto
56370.5 65515.6 lineto
poly0
newpath
56370.5 64628.4 moveto
56370.5 64875.4 lineto
56123.5 64875.4 lineto
56123.5 64628.4 lineto
56370.5 64628.4 lineto
poly0
newpath
56592.3 76162.2 moveto
56592.3 76409.2 lineto
56345.3 76409.2 lineto
56345.3 76162.2 lineto
56592.3 76162.2 lineto
poly0
newpath
56592.3 75275 moveto
56592.3 75522 lineto
56345.3 75522 lineto
56345.3 75275 lineto
56592.3 75275 lineto
poly0
newpath
57257.7 65515.6 moveto
57257.7 65762.6 lineto
57010.7 65762.6 lineto
57010.7 65515.6 lineto
57257.7 65515.6 lineto
poly0
newpath
57257.7 64628.4 moveto
57257.7 64875.4 lineto
57010.7 64875.4 lineto
57010.7 64628.4 lineto
57257.7 64628.4 lineto
poly0
newpath
57479.5 76162.2 moveto
57479.5 76409.2 lineto
57232.5 76409.2 lineto
57232.5 76162.2 lineto
57479.5 76162.2 lineto
poly0
newpath
57479.5 75275 moveto
57479.5 75522 lineto
57232.5 75522 lineto
57232.5 75275 lineto
57479.5 75275 lineto
poly0
newpath
58144.9 65515.6 moveto
58144.9 65762.6 lineto
57897.9 65762.6 lineto
57897.9 65515.6 lineto
58144.9 65515.6 lineto
poly0
newpath
58144.9 64628.4 moveto
58144.9 64875.4 lineto
57897.9 64875.4 lineto
57897.9 64628.4 lineto
58144.9 64628.4 lineto
poly0
newpath
58366.7 76162.2 moveto
58366.7 76409.2 lineto
58119.7 76409.2 lineto
58119.7 76162.2 lineto
58366.7 76162.2 lineto
poly0
newpath
58366.7 75275 moveto
58366.7 75522 lineto
58119.7 75522 lineto
58119.7 75275 lineto
58366.7 75275 lineto
poly0
newpath
59032.1 65515.6 moveto
59032.1 65762.6 lineto
58785.1 65762.6 lineto
58785.1 65515.6 lineto
59032.1 65515.6 lineto
poly0
newpath
59032.1 64628.4 moveto
59032.1 64875.4 lineto
58785.1 64875.4 lineto
58785.1 64628.4 lineto
59032.1 64628.4 lineto
poly0
newpath
59253.9 76162.2 moveto
59253.9 76409.2 lineto
59006.9 76409.2 lineto
59006.9 76162.2 lineto
59253.9 76162.2 lineto
poly0
newpath
59253.9 75275 moveto
59253.9 75522 lineto
59006.9 75522 lineto
59006.9 75275 lineto
59253.9 75275 lineto
poly0
newpath
59919.3 65515.6 moveto
59919.3 65762.6 lineto
59672.3 65762.6 lineto
59672.3 65515.6 lineto
59919.3 65515.6 lineto
poly0
newpath
59919.3 64628.4 moveto
59919.3 64875.4 lineto
59672.3 64875.4 lineto
59672.3 64628.4 lineto
59919.3 64628.4 lineto
poly0
newpath
60141.1 76162.2 moveto
60141.1 76409.2 lineto
59894.1 76409.2 lineto
59894.1 76162.2 lineto
60141.1 76162.2 lineto
poly0
newpath
60141.1 75275 moveto
60141.1 75522 lineto
59894.1 75522 lineto
59894.1 75275 lineto
60141.1 75275 lineto
poly0
newpath
60806.5 65515.6 moveto
60806.5 65762.6 lineto
60559.5 65762.6 lineto
60559.5 65515.6 lineto
60806.5 65515.6 lineto
poly0
newpath
60806.5 64628.4 moveto
60806.5 64875.4 lineto
60559.5 64875.4 lineto
60559.5 64628.4 lineto
60806.5 64628.4 lineto
poly0
newpath
61028.3 76162.2 moveto
61028.3 76409.2 lineto
60781.3 76409.2 lineto
60781.3 76162.2 lineto
61028.3 76162.2 lineto
poly0
newpath
61028.3 75275 moveto
61028.3 75522 lineto
60781.3 75522 lineto
60781.3 75275 lineto
61028.3 75275 lineto
poly0
newpath
61693.7 65515.6 moveto
61693.7 65762.6 lineto
61446.8 65762.6 lineto
61446.8 65515.6 lineto
61693.7 65515.6 lineto
poly0
newpath
61693.7 64628.4 moveto
61693.7 64875.4 lineto
61446.8 64875.4 lineto
61446.8 64628.4 lineto
61693.7 64628.4 lineto
poly0
newpath
61915.5 76162.2 moveto
61915.5 76409.2 lineto
61668.6 76409.2 lineto
61668.6 76162.2 lineto
61915.5 76162.2 lineto
poly0
newpath
61915.5 75275 moveto
61915.5 75522 lineto
61668.6 75522 lineto
61668.6 75275 lineto
61915.5 75275 lineto
poly0
newpath
62581 65515.6 moveto
62581 65762.6 lineto
62334 65762.6 lineto
62334 65515.6 lineto
62581 65515.6 lineto
poly0
newpath
62581 64628.4 moveto
62581 64875.4 lineto
62334 64875.4 lineto
62334 64628.4 lineto
62581 64628.4 lineto
poly0
newpath
62802.8 76162.2 moveto
62802.8 76409.2 lineto
62555.8 76409.2 lineto
62555.8 76162.2 lineto
62802.8 76162.2 lineto
poly0
newpath
62802.8 75275 moveto
62802.8 75522 lineto
62555.8 75522 lineto
62555.8 75275 lineto
62802.8 75275 lineto
poly0
newpath
65797.1 55711.9 moveto
65797.1 55958.9 lineto
65550.1 55958.9 lineto
65550.1 55711.9 lineto
65797.1 55711.9 lineto
poly0
newpath
68791.5 73500.6 moveto
68791.5 73747.5 lineto
68544.5 73747.5 lineto
68544.5 73500.6 lineto
68791.5 73500.6 lineto
poly0
newpath
68791.5 72613.3 moveto
68791.5 72860.3 lineto
68544.5 72860.3 lineto
68544.5 72613.3 lineto
68791.5 72613.3 lineto
poly0
newpath
68791.5 71726.1 moveto
68791.5 71973.1 lineto
68544.5 71973.1 lineto
68544.5 71726.1 lineto
68791.5 71726.1 lineto
poly0
newpath
68791.5 70838.9 moveto
68791.5 71085.9 lineto
68544.5 71085.9 lineto
68544.5 70838.9 lineto
68791.5 70838.9 lineto
poly0
newpath
68791.5 69951.7 moveto
68791.5 70198.7 lineto
68544.5 70198.7 lineto
68544.5 69951.7 lineto
68791.5 69951.7 lineto
poly0
newpath
68791.5 69064.5 moveto
68791.5 69311.5 lineto
68544.5 69311.5 lineto
68544.5 69064.5 lineto
68791.5 69064.5 lineto
poly0
newpath
71408.7 63208.9 moveto
71408.7 63455.9 lineto
71161.7 63455.9 lineto
71161.7 63208.9 lineto
71408.7 63208.9 lineto
poly0
newpath
71408.7 62321.7 moveto
71408.7 62568.6 lineto
71161.7 62568.6 lineto
71161.7 62321.7 lineto
71408.7 62321.7 lineto
poly0
newpath
71408.7 61434.4 moveto
71408.7 61681.4 lineto
71161.7 61681.4 lineto
71161.7 61434.4 lineto
71408.7 61434.4 lineto
poly0
newpath
71408.7 60547.2 moveto
71408.7 60794.2 lineto
71161.7 60794.2 lineto
71161.7 60547.2 lineto
71408.7 60547.2 lineto
poly0
newpath
71408.7 59660 moveto
71408.7 59907 lineto
71161.7 59907 lineto
71161.7 59660 lineto
71408.7 59660 lineto
poly0
newpath
71408.7 58772.8 moveto
71408.7 59019.8 lineto
71161.7 59019.8 lineto
71161.7 58772.8 lineto
71408.7 58772.8 lineto
poly0
118.11 setlinewidth
0 0 0 setrgbcolor
0 0 0 setrgbcolor
newpath
44270.8 35175.5 moveto
44270.8 36356.6 lineto
44552 36356.6 lineto
44720.7 36300.3 lineto
44833.2 36187.9 lineto
44889.4 36075.4 lineto
44945.7 35850.4 lineto
44945.7 35681.7 lineto
44889.4 35456.7 lineto
44833.2 35344.2 lineto
44720.7 35231.7 lineto
44552 35175.5 lineto
44270.8 35175.5 lineto
stroke
newpath
45451.9 35175.5 moveto
45451.9 35962.9 lineto
stroke
newpath
45451.9 35737.9 moveto
45508.1 35850.4 lineto
45564.4 35906.6 lineto
45676.8 35962.9 lineto
45789.3 35962.9 lineto
stroke
newpath
46183 35175.5 moveto
46183 35962.9 lineto
stroke
newpath
46183 36356.6 moveto
46126.8 36300.3 lineto
46183 36244.1 lineto
46239.3 36300.3 lineto
46183 36356.6 lineto
46183 36244.1 lineto
stroke
newpath
46914.2 35175.5 moveto
46801.7 35231.7 lineto
46745.5 35344.2 lineto
46745.5 36356.6 lineto
stroke
newpath
47532.9 35175.5 moveto
47420.4 35231.7 lineto
47364.1 35344.2 lineto
47364.1 36356.6 lineto
stroke
newpath
48882.7 35175.5 moveto
48882.7 36356.6 lineto
49276.4 35512.9 lineto
49670.1 36356.6 lineto
49670.1 35175.5 lineto
stroke
newpath
50738.7 35175.5 moveto
50738.7 35794.2 lineto
50682.5 35906.6 lineto
50570 35962.9 lineto
50345 35962.9 lineto
50232.5 35906.6 lineto
stroke
newpath
50738.7 35231.7 moveto
50626.2 35175.5 lineto
50345 35175.5 lineto
50232.5 35231.7 lineto
50176.3 35344.2 lineto
50176.3 35456.7 lineto
50232.5 35569.2 lineto
50345 35625.4 lineto
50626.2 35625.4 lineto
50738.7 35681.7 lineto
stroke
newpath
51301.1 35962.9 moveto
51301.1 34781.8 lineto
stroke
newpath
51301.1 35906.6 moveto
51413.6 35962.9 lineto
51638.6 35962.9 lineto
51751.1 35906.6 lineto
51807.3 35850.4 lineto
51863.6 35737.9 lineto
51863.6 35400.5 lineto
51807.3 35288 lineto
51751.1 35231.7 lineto
51638.6 35175.5 lineto
51413.6 35175.5 lineto
51301.1 35231.7 lineto
stroke
newpath
52369.8 35288 moveto
52426 35231.7 lineto
52369.8 35175.5 lineto
52313.5 35231.7 lineto
52369.8 35288 lineto
52369.8 35175.5 lineto
stroke
newpath
52369.8 35906.6 moveto
52426 35850.4 lineto
52369.8 35794.2 lineto
52313.5 35850.4 lineto
52369.8 35906.6 lineto
52369.8 35794.2 lineto
stroke
newpath
43003.4 33299.3 moveto
43143.1 33159.6 lineto
stroke
newpath
43143.1 33299.3 moveto
43003.4 33159.6 lineto
stroke
0 0 0 setrgbcolor
0 0 0 setrgbcolor
newpath
44495.7 33876.3 moveto
44608.2 33876.3 lineto
44720.7 33820 lineto
44777 33763.8 lineto
44833.2 33651.3 lineto
44889.4 33426.3 lineto
44889.4 33145.1 lineto
44833.2 32920.1 lineto
44777 32807.7 lineto
44720.7 32751.4 lineto
44608.2 32695.2 lineto
44495.7 32695.2 lineto
44383.3 32751.4 lineto
44327 32807.7 lineto
44270.8 32920.1 lineto
44214.5 33145.1 lineto
44214.5 33426.3 lineto
44270.8 33651.3 lineto
44327 33763.8 lineto
44383.3 33820 lineto
44495.7 33876.3 lineto
stroke
newpath
45395.6 32807.7 moveto
45451.9 32751.4 lineto
45395.6 32695.2 lineto
45339.4 32751.4 lineto
45395.6 32807.7 lineto
45395.6 32695.2 lineto
stroke
newpath
46464.2 33482.6 moveto
46464.2 32695.2 lineto
stroke
newpath
46183 33932.5 moveto
45901.8 33088.9 lineto
46633 33088.9 lineto
stroke
newpath
47307.9 33876.3 moveto
47420.4 33876.3 lineto
47532.9 33820 lineto
47589.1 33763.8 lineto
47645.3 33651.3 lineto
47701.6 33426.3 lineto
47701.6 33145.1 lineto
47645.3 32920.1 lineto
47589.1 32807.7 lineto
47532.9 32751.4 lineto
47420.4 32695.2 lineto
47307.9 32695.2 lineto
47195.4 32751.4 lineto
47139.2 32807.7 lineto
47082.9 32920.1 lineto
47026.7 33145.1 lineto
47026.7 33426.3 lineto
47082.9 33651.3 lineto
47139.2 33763.8 lineto
47195.4 33820 lineto
47307.9 33876.3 lineto
stroke
newpath
48432.7 33876.3 moveto
48545.2 33876.3 lineto
48657.7 33820 lineto
48714 33763.8 lineto
48770.2 33651.3 lineto
48826.4 33426.3 lineto
48826.4 33145.1 lineto
48770.2 32920.1 lineto
48714 32807.7 lineto
48657.7 32751.4 lineto
48545.2 32695.2 lineto
48432.7 32695.2 lineto
48320.3 32751.4 lineto
48264 32807.7 lineto
48207.8 32920.1 lineto
48151.5 33145.1 lineto
48151.5 33426.3 lineto
48207.8 33651.3 lineto
48264 33763.8 lineto
48320.3 33820 lineto
48432.7 33876.3 lineto
stroke
newpath
49332.6 32695.2 moveto
49332.6 33482.6 lineto
stroke
newpath
49332.6 33370.1 moveto
49388.9 33426.3 lineto
49501.4 33482.6 lineto
49670.1 33482.6 lineto
49782.6 33426.3 lineto
49838.8 33313.8 lineto
49838.8 32695.2 lineto
stroke
newpath
49838.8 33313.8 moveto
49895.1 33426.3 lineto
50007.5 33482.6 lineto
50176.3 33482.6 lineto
50288.8 33426.3 lineto
50345 33313.8 lineto
50345 32695.2 lineto
stroke
newpath
50907.4 32695.2 moveto
50907.4 33482.6 lineto
stroke
newpath
50907.4 33370.1 moveto
50963.7 33426.3 lineto
51076.2 33482.6 lineto
51244.9 33482.6 lineto
51357.4 33426.3 lineto
51413.6 33313.8 lineto
51413.6 32695.2 lineto
stroke
newpath
51413.6 33313.8 moveto
51469.9 33426.3 lineto
51582.4 33482.6 lineto
51751.1 33482.6 lineto
51863.6 33426.3 lineto
51919.8 33313.8 lineto
51919.8 32695.2 lineto
stroke
newpath
54225.8 33932.5 moveto
53213.4 32414 lineto
stroke
newpath
55744.3 33876.3 moveto
55856.8 33876.3 lineto
55969.3 33820 lineto
56025.5 33763.8 lineto
56081.8 33651.3 lineto
56138 33426.3 lineto
56138 33145.1 lineto
56081.8 32920.1 lineto
56025.5 32807.7 lineto
55969.3 32751.4 lineto
55856.8 32695.2 lineto
55744.3 32695.2 lineto
55631.8 32751.4 lineto
55575.6 32807.7 lineto
55519.4 32920.1 lineto
55463.1 33145.1 lineto
55463.1 33426.3 lineto
55519.4 33651.3 lineto
55575.6 33763.8 lineto
55631.8 33820 lineto
55744.3 33876.3 lineto
stroke
newpath
56644.2 32807.7 moveto
56700.5 32751.4 lineto
56644.2 32695.2 lineto
56588 32751.4 lineto
56644.2 32807.7 lineto
56644.2 32695.2 lineto
stroke
newpath
57431.6 33876.3 moveto
57544.1 33876.3 lineto
57656.6 33820 lineto
57712.8 33763.8 lineto
57769.1 33651.3 lineto
57825.3 33426.3 lineto
57825.3 33145.1 lineto
57769.1 32920.1 lineto
57712.8 32807.7 lineto
57656.6 32751.4 lineto
57544.1 32695.2 lineto
57431.6 32695.2 lineto
57319.1 32751.4 lineto
57262.9 32807.7 lineto
57206.7 32920.1 lineto
57150.4 33145.1 lineto
57150.4 33426.3 lineto
57206.7 33651.3 lineto
57262.9 33763.8 lineto
57319.1 33820 lineto
57431.6 33876.3 lineto
stroke
newpath
58950.2 32695.2 moveto
58275.3 32695.2 lineto
stroke
newpath
58612.7 32695.2 moveto
58612.7 33876.3 lineto
58500.2 33707.5 lineto
58387.8 33595.1 lineto
58275.3 33538.8 lineto
stroke
newpath
60018.8 33876.3 moveto
59456.4 33876.3 lineto
59400.1 33313.8 lineto
59456.4 33370.1 lineto
59568.9 33426.3 lineto
59850.1 33426.3 lineto
59962.6 33370.1 lineto
60018.8 33313.8 lineto
60075 33201.4 lineto
60075 32920.1 lineto
60018.8 32807.7 lineto
59962.6 32751.4 lineto
59850.1 32695.2 lineto
59568.9 32695.2 lineto
59456.4 32751.4 lineto
59400.1 32807.7 lineto
stroke
newpath
60468.7 33876.3 moveto
61256.1 33876.3 lineto
60750 32695.2 lineto
stroke
newpath
61649.8 33876.3 moveto
61649.8 33651.3 lineto
stroke
newpath
62099.8 33876.3 moveto
62099.8 33651.3 lineto
stroke
newpath
63843.3 32245.2 moveto
63787.1 32301.5 lineto
63674.6 32470.2 lineto
63618.3 32582.7 lineto
63562.1 32751.4 lineto
63505.9 33032.6 lineto
63505.9 33257.6 lineto
63562.1 33538.8 lineto
63618.3 33707.5 lineto
63674.6 33820 lineto
63787.1 33988.8 lineto
63843.3 34045 lineto
stroke
newpath
64799.5 33876.3 moveto
64574.5 33876.3 lineto
64462 33820 lineto
64405.8 33763.8 lineto
64293.3 33595.1 lineto
64237 33370.1 lineto
64237 32920.1 lineto
64293.3 32807.7 lineto
64349.5 32751.4 lineto
64462 32695.2 lineto
64687 32695.2 lineto
64799.5 32751.4 lineto
64855.7 32807.7 lineto
64911.9 32920.1 lineto
64911.9 33201.4 lineto
64855.7 33313.8 lineto
64799.5 33370.1 lineto
64687 33426.3 lineto
64462 33426.3 lineto
64349.5 33370.1 lineto
64293.3 33313.8 lineto
64237 33201.4 lineto
stroke
newpath
65980.6 33876.3 moveto
65418.1 33876.3 lineto
65361.9 33313.8 lineto
65418.1 33370.1 lineto
65530.6 33426.3 lineto
65811.8 33426.3 lineto
65924.3 33370.1 lineto
65980.6 33313.8 lineto
66036.8 33201.4 lineto
66036.8 32920.1 lineto
65980.6 32807.7 lineto
65924.3 32751.4 lineto
65811.8 32695.2 lineto
65530.6 32695.2 lineto
65418.1 32751.4 lineto
65361.9 32807.7 lineto
stroke
newpath
67442.9 32695.2 moveto
67442.9 33876.3 lineto
stroke
newpath
67949.1 32695.2 moveto
67949.1 33313.8 lineto
67892.8 33426.3 lineto
67780.3 33482.6 lineto
67611.6 33482.6 lineto
67499.1 33426.3 lineto
67442.9 33370.1 lineto
stroke
newpath
68680.2 32695.2 moveto
68567.7 32751.4 lineto
68511.5 32807.7 lineto
68455.2 32920.1 lineto
68455.2 33257.6 lineto
68511.5 33370.1 lineto
68567.7 33426.3 lineto
68680.2 33482.6 lineto
68848.9 33482.6 lineto
68961.4 33426.3 lineto
69017.7 33370.1 lineto
69073.9 33257.6 lineto
69073.9 32920.1 lineto
69017.7 32807.7 lineto
68961.4 32751.4 lineto
68848.9 32695.2 lineto
68680.2 32695.2 lineto
stroke
newpath
69748.8 32695.2 moveto
69636.3 32751.4 lineto
69580.1 32863.9 lineto
69580.1 33876.3 lineto
stroke
newpath
70648.7 32751.4 moveto
70536.2 32695.2 lineto
70311.3 32695.2 lineto
70198.8 32751.4 lineto
70142.5 32863.9 lineto
70142.5 33313.8 lineto
70198.8 33426.3 lineto
70311.3 33482.6 lineto
70536.2 33482.6 lineto
70648.7 33426.3 lineto
70705 33313.8 lineto
70705 33201.4 lineto
70142.5 33088.9 lineto
stroke
newpath
71154.9 32751.4 moveto
71267.4 32695.2 lineto
71492.4 32695.2 lineto
71604.9 32751.4 lineto
71661.1 32863.9 lineto
71661.1 32920.1 lineto
71604.9 33032.6 lineto
71492.4 33088.9 lineto
71323.6 33088.9 lineto
71211.2 33145.1 lineto
71154.9 33257.6 lineto
71154.9 33313.8 lineto
71211.2 33426.3 lineto
71323.6 33482.6 lineto
71492.4 33482.6 lineto
71604.9 33426.3 lineto
stroke
newpath
72054.8 32245.2 moveto
72111 32301.5 lineto
72223.5 32470.2 lineto
72279.8 32582.7 lineto
72336 32751.4 lineto
72392.3 33032.6 lineto
72392.3 33257.6 lineto
72336 33538.8 lineto
72279.8 33707.5 lineto
72223.5 33820 lineto
72111 33988.8 lineto
72054.8 34045 lineto
stroke
43003.4 31670.4 139.719 cir0
0 0 0 setrgbcolor
0 0 0 setrgbcolor
newpath
44495.7 32317.2 moveto
44608.2 32317.2 lineto
44720.7 32261 lineto
44777 32204.7 lineto
44833.2 32092.2 lineto
44889.4 31867.3 lineto
44889.4 31586.1 lineto
44833.2 31361.1 lineto
44777 31248.6 lineto
44720.7 31192.4 lineto
44608.2 31136.1 lineto
44495.7 31136.1 lineto
44383.3 31192.4 lineto
44327 31248.6 lineto
44270.8 31361.1 lineto
44214.5 31586.1 lineto
44214.5 31867.3 lineto
44270.8 32092.2 lineto
44327 32204.7 lineto
44383.3 32261 lineto
44495.7 32317.2 lineto
stroke
newpath
45395.6 31248.6 moveto
45451.9 31192.4 lineto
45395.6 31136.1 lineto
45339.4 31192.4 lineto
45395.6 31248.6 lineto
45395.6 31136.1 lineto
stroke
newpath
46126.8 31811 moveto
46014.3 31867.3 lineto
45958.1 31923.5 lineto
45901.8 32036 lineto
45901.8 32092.2 lineto
45958.1 32204.7 lineto
46014.3 32261 lineto
46126.8 32317.2 lineto
46351.8 32317.2 lineto
46464.2 32261 lineto
46520.5 32204.7 lineto
46576.7 32092.2 lineto
46576.7 32036 lineto
46520.5 31923.5 lineto
46464.2 31867.3 lineto
46351.8 31811 lineto
46126.8 31811 lineto
46014.3 31754.8 lineto
45958.1 31698.5 lineto
45901.8 31586.1 lineto
45901.8 31361.1 lineto
45958.1 31248.6 lineto
46014.3 31192.4 lineto
46126.8 31136.1 lineto
46351.8 31136.1 lineto
46464.2 31192.4 lineto
46520.5 31248.6 lineto
46576.7 31361.1 lineto
46576.7 31586.1 lineto
46520.5 31698.5 lineto
46464.2 31754.8 lineto
46351.8 31811 lineto
stroke
newpath
47307.9 32317.2 moveto
47420.4 32317.2 lineto
47532.9 32261 lineto
47589.1 32204.7 lineto
47645.3 32092.2 lineto
47701.6 31867.3 lineto
47701.6 31586.1 lineto
47645.3 31361.1 lineto
47589.1 31248.6 lineto
47532.9 31192.4 lineto
47420.4 31136.1 lineto
47307.9 31136.1 lineto
47195.4 31192.4 lineto
47139.2 31248.6 lineto
47082.9 31361.1 lineto
47026.7 31586.1 lineto
47026.7 31867.3 lineto
47082.9 32092.2 lineto
47139.2 32204.7 lineto
47195.4 32261 lineto
47307.9 32317.2 lineto
stroke
newpath
48432.7 32317.2 moveto
48545.2 32317.2 lineto
48657.7 32261 lineto
48714 32204.7 lineto
48770.2 32092.2 lineto
48826.4 31867.3 lineto
48826.4 31586.1 lineto
48770.2 31361.1 lineto
48714 31248.6 lineto
48657.7 31192.4 lineto
48545.2 31136.1 lineto
48432.7 31136.1 lineto
48320.3 31192.4 lineto
48264 31248.6 lineto
48207.8 31361.1 lineto
48151.5 31586.1 lineto
48151.5 31867.3 lineto
48207.8 32092.2 lineto
48264 32204.7 lineto
48320.3 32261 lineto
48432.7 32317.2 lineto
stroke
newpath
49332.6 31136.1 moveto
49332.6 31923.5 lineto
stroke
newpath
49332.6 31811 moveto
49388.9 31867.3 lineto
49501.4 31923.5 lineto
49670.1 31923.5 lineto
49782.6 31867.3 lineto
49838.8 31754.8 lineto
49838.8 31136.1 lineto
stroke
newpath
49838.8 31754.8 moveto
49895.1 31867.3 lineto
50007.5 31923.5 lineto
50176.3 31923.5 lineto
50288.8 31867.3 lineto
50345 31754.8 lineto
50345 31136.1 lineto
stroke
newpath
50907.4 31136.1 moveto
50907.4 31923.5 lineto
stroke
newpath
50907.4 31811 moveto
50963.7 31867.3 lineto
51076.2 31923.5 lineto
51244.9 31923.5 lineto
51357.4 31867.3 lineto
51413.6 31754.8 lineto
51413.6 31136.1 lineto
stroke
newpath
51413.6 31754.8 moveto
51469.9 31867.3 lineto
51582.4 31923.5 lineto
51751.1 31923.5 lineto
51863.6 31867.3 lineto
51919.8 31754.8 lineto
51919.8 31136.1 lineto
stroke
newpath
54225.8 32373.5 moveto
53213.4 30854.9 lineto
stroke
newpath
55744.3 32317.2 moveto
55856.8 32317.2 lineto
55969.3 32261 lineto
56025.5 32204.7 lineto
56081.8 32092.2 lineto
56138 31867.3 lineto
56138 31586.1 lineto
56081.8 31361.1 lineto
56025.5 31248.6 lineto
55969.3 31192.4 lineto
55856.8 31136.1 lineto
55744.3 31136.1 lineto
55631.8 31192.4 lineto
55575.6 31248.6 lineto
55519.4 31361.1 lineto
55463.1 31586.1 lineto
55463.1 31867.3 lineto
55519.4 32092.2 lineto
55575.6 32204.7 lineto
55631.8 32261 lineto
55744.3 32317.2 lineto
stroke
newpath
56644.2 31248.6 moveto
56700.5 31192.4 lineto
56644.2 31136.1 lineto
56588 31192.4 lineto
56644.2 31248.6 lineto
56644.2 31136.1 lineto
stroke
newpath
57431.6 32317.2 moveto
57544.1 32317.2 lineto
57656.6 32261 lineto
57712.8 32204.7 lineto
57769.1 32092.2 lineto
57825.3 31867.3 lineto
57825.3 31586.1 lineto
57769.1 31361.1 lineto
57712.8 31248.6 lineto
57656.6 31192.4 lineto
57544.1 31136.1 lineto
57431.6 31136.1 lineto
57319.1 31192.4 lineto
57262.9 31248.6 lineto
57206.7 31361.1 lineto
57150.4 31586.1 lineto
57150.4 31867.3 lineto
57206.7 32092.2 lineto
57262.9 32204.7 lineto
57319.1 32261 lineto
57431.6 32317.2 lineto
stroke
newpath
58219 32317.2 moveto
58950.2 32317.2 lineto
58556.5 31867.3 lineto
58725.2 31867.3 lineto
58837.7 31811 lineto
58893.9 31754.8 lineto
58950.2 31642.3 lineto
58950.2 31361.1 lineto
58893.9 31248.6 lineto
58837.7 31192.4 lineto
58725.2 31136.1 lineto
58387.8 31136.1 lineto
58275.3 31192.4 lineto
58219 31248.6 lineto
stroke
newpath
60075 31136.1 moveto
59400.1 31136.1 lineto
stroke
newpath
59737.6 31136.1 moveto
59737.6 32317.2 lineto
59625.1 32148.5 lineto
59512.6 32036 lineto
59400.1 31979.8 lineto
stroke
newpath
61143.7 32317.2 moveto
60581.2 32317.2 lineto
60525 31754.8 lineto
60581.2 31811 lineto
60693.7 31867.3 lineto
60974.9 31867.3 lineto
61087.4 31811 lineto
61143.7 31754.8 lineto
61199.9 31642.3 lineto
61199.9 31361.1 lineto
61143.7 31248.6 lineto
61087.4 31192.4 lineto
60974.9 31136.1 lineto
60693.7 31136.1 lineto
60581.2 31192.4 lineto
60525 31248.6 lineto
stroke
newpath
61649.8 32317.2 moveto
61649.8 32092.2 lineto
stroke
newpath
62099.8 32317.2 moveto
62099.8 32092.2 lineto
stroke
newpath
63843.3 30686.2 moveto
63787.1 30742.4 lineto
63674.6 30911.1 lineto
63618.3 31023.6 lineto
63562.1 31192.4 lineto
63505.9 31473.6 lineto
63505.9 31698.5 lineto
63562.1 31979.8 lineto
63618.3 32148.5 lineto
63674.6 32261 lineto
63787.1 32429.7 lineto
63843.3 32485.9 lineto
stroke
newpath
64237 32204.7 moveto
64293.3 32261 lineto
64405.8 32317.2 lineto
64687 32317.2 lineto
64799.5 32261 lineto
64855.7 32204.7 lineto
64911.9 32092.2 lineto
64911.9 31979.8 lineto
64855.7 31811 lineto
64180.8 31136.1 lineto
64911.9 31136.1 lineto
stroke
newpath
66318 31136.1 moveto
66318 32317.2 lineto
stroke
newpath
66824.2 31136.1 moveto
66824.2 31754.8 lineto
66768 31867.3 lineto
66655.5 31923.5 lineto
66486.7 31923.5 lineto
66374.3 31867.3 lineto
66318 31811 lineto
stroke
newpath
67555.4 31136.1 moveto
67442.9 31192.4 lineto
67386.6 31248.6 lineto
67330.4 31361.1 lineto
67330.4 31698.5 lineto
67386.6 31811 lineto
67442.9 31867.3 lineto
67555.4 31923.5 lineto
67724.1 31923.5 lineto
67836.6 31867.3 lineto
67892.8 31811 lineto
67949.1 31698.5 lineto
67949.1 31361.1 lineto
67892.8 31248.6 lineto
67836.6 31192.4 lineto
67724.1 31136.1 lineto
67555.4 31136.1 lineto
stroke
newpath
68624 31136.1 moveto
68511.5 31192.4 lineto
68455.2 31304.8 lineto
68455.2 32317.2 lineto
stroke
newpath
69523.9 31192.4 moveto
69411.4 31136.1 lineto
69186.4 31136.1 lineto
69073.9 31192.4 lineto
69017.7 31304.8 lineto
69017.7 31754.8 lineto
69073.9 31867.3 lineto
69186.4 31923.5 lineto
69411.4 31923.5 lineto
69523.9 31867.3 lineto
69580.1 31754.8 lineto
69580.1 31642.3 lineto
69017.7 31529.8 lineto
stroke
newpath
70030 31192.4 moveto
70142.5 31136.1 lineto
70367.5 31136.1 lineto
70480 31192.4 lineto
70536.2 31304.8 lineto
70536.2 31361.1 lineto
70480 31473.6 lineto
70367.5 31529.8 lineto
70198.8 31529.8 lineto
70086.3 31586.1 lineto
70030 31698.5 lineto
70030 31754.8 lineto
70086.3 31867.3 lineto
70198.8 31923.5 lineto
70367.5 31923.5 lineto
70480 31867.3 lineto
stroke
newpath
70929.9 30686.2 moveto
70986.2 30742.4 lineto
71098.7 30911.1 lineto
71154.9 31023.6 lineto
71211.2 31192.4 lineto
71267.4 31473.6 lineto
71267.4 31698.5 lineto
71211.2 31979.8 lineto
71154.9 32148.5 lineto
71098.7 32261 lineto
70986.2 32429.7 lineto
70929.9 32485.9 lineto
stroke
newpath
42985.9 30268.6 moveto
42985.9 29954.2 lineto
stroke
newpath
42828.7 30111.4 moveto
43143.1 30111.4 lineto
stroke
0 0 0 setrgbcolor
0 0 0 setrgbcolor
newpath
44495.7 30758.2 moveto
44608.2 30758.2 lineto
44720.7 30701.9 lineto
44777 30645.7 lineto
44833.2 30533.2 lineto
44889.4 30308.2 lineto
44889.4 30027 lineto
44833.2 29802 lineto
44777 29689.5 lineto
44720.7 29633.3 lineto
44608.2 29577.1 lineto
44495.7 29577.1 lineto
44383.3 29633.3 lineto
44327 29689.5 lineto
44270.8 29802 lineto
44214.5 30027 lineto
44214.5 30308.2 lineto
44270.8 30533.2 lineto
44327 30645.7 lineto
44383.3 30701.9 lineto
44495.7 30758.2 lineto
stroke
newpath
45395.6 29689.5 moveto
45451.9 29633.3 lineto
45395.6 29577.1 lineto
45339.4 29633.3 lineto
45395.6 29689.5 lineto
45395.6 29577.1 lineto
stroke
newpath
46014.3 29577.1 moveto
46239.3 29577.1 lineto
46351.8 29633.3 lineto
46408 29689.5 lineto
46520.5 29858.3 lineto
46576.7 30083.2 lineto
46576.7 30533.2 lineto
46520.5 30645.7 lineto
46464.2 30701.9 lineto
46351.8 30758.2 lineto
46126.8 30758.2 lineto
46014.3 30701.9 lineto
45958.1 30645.7 lineto
45901.8 30533.2 lineto
45901.8 30252 lineto
45958.1 30139.5 lineto
46014.3 30083.2 lineto
46126.8 30027 lineto
46351.8 30027 lineto
46464.2 30083.2 lineto
46520.5 30139.5 lineto
46576.7 30252 lineto
stroke
newpath
47307.9 30758.2 moveto
47420.4 30758.2 lineto
47532.9 30701.9 lineto
47589.1 30645.7 lineto
47645.3 30533.2 lineto
47701.6 30308.2 lineto
47701.6 30027 lineto
47645.3 29802 lineto
47589.1 29689.5 lineto
47532.9 29633.3 lineto
47420.4 29577.1 lineto
47307.9 29577.1 lineto
47195.4 29633.3 lineto
47139.2 29689.5 lineto
47082.9 29802 lineto
47026.7 30027 lineto
47026.7 30308.2 lineto
47082.9 30533.2 lineto
47139.2 30645.7 lineto
47195.4 30701.9 lineto
47307.9 30758.2 lineto
stroke
newpath
48432.7 30758.2 moveto
48545.2 30758.2 lineto
48657.7 30701.9 lineto
48714 30645.7 lineto
48770.2 30533.2 lineto
48826.4 30308.2 lineto
48826.4 30027 lineto
48770.2 29802 lineto
48714 29689.5 lineto
48657.7 29633.3 lineto
48545.2 29577.1 lineto
48432.7 29577.1 lineto
48320.3 29633.3 lineto
48264 29689.5 lineto
48207.8 29802 lineto
48151.5 30027 lineto
48151.5 30308.2 lineto
48207.8 30533.2 lineto
48264 30645.7 lineto
48320.3 30701.9 lineto
48432.7 30758.2 lineto
stroke
newpath
49332.6 29577.1 moveto
49332.6 30364.5 lineto
stroke
newpath
49332.6 30252 moveto
49388.9 30308.2 lineto
49501.4 30364.5 lineto
49670.1 30364.5 lineto
49782.6 30308.2 lineto
49838.8 30195.7 lineto
49838.8 29577.1 lineto
stroke
newpath
49838.8 30195.7 moveto
49895.1 30308.2 lineto
50007.5 30364.5 lineto
50176.3 30364.5 lineto
50288.8 30308.2 lineto
50345 30195.7 lineto
50345 29577.1 lineto
stroke
newpath
50907.4 29577.1 moveto
50907.4 30364.5 lineto
stroke
newpath
50907.4 30252 moveto
50963.7 30308.2 lineto
51076.2 30364.5 lineto
51244.9 30364.5 lineto
51357.4 30308.2 lineto
51413.6 30195.7 lineto
51413.6 29577.1 lineto
stroke
newpath
51413.6 30195.7 moveto
51469.9 30308.2 lineto
51582.4 30364.5 lineto
51751.1 30364.5 lineto
51863.6 30308.2 lineto
51919.8 30195.7 lineto
51919.8 29577.1 lineto
stroke
newpath
54225.8 30814.4 moveto
53213.4 29295.8 lineto
stroke
newpath
55744.3 30758.2 moveto
55856.8 30758.2 lineto
55969.3 30701.9 lineto
56025.5 30645.7 lineto
56081.8 30533.2 lineto
56138 30308.2 lineto
56138 30027 lineto
56081.8 29802 lineto
56025.5 29689.5 lineto
55969.3 29633.3 lineto
55856.8 29577.1 lineto
55744.3 29577.1 lineto
55631.8 29633.3 lineto
55575.6 29689.5 lineto
55519.4 29802 lineto
55463.1 30027 lineto
55463.1 30308.2 lineto
55519.4 30533.2 lineto
55575.6 30645.7 lineto
55631.8 30701.9 lineto
55744.3 30758.2 lineto
stroke
newpath
56644.2 29689.5 moveto
56700.5 29633.3 lineto
56644.2 29577.1 lineto
56588 29633.3 lineto
56644.2 29689.5 lineto
56644.2 29577.1 lineto
stroke
newpath
57431.6 30758.2 moveto
57544.1 30758.2 lineto
57656.6 30701.9 lineto
57712.8 30645.7 lineto
57769.1 30533.2 lineto
57825.3 30308.2 lineto
57825.3 30027 lineto
57769.1 29802 lineto
57712.8 29689.5 lineto
57656.6 29633.3 lineto
57544.1 29577.1 lineto
57431.6 29577.1 lineto
57319.1 29633.3 lineto
57262.9 29689.5 lineto
57206.7 29802 lineto
57150.4 30027 lineto
57150.4 30308.2 lineto
57206.7 30533.2 lineto
57262.9 30645.7 lineto
57319.1 30701.9 lineto
57431.6 30758.2 lineto
stroke
newpath
58219 30758.2 moveto
58950.2 30758.2 lineto
58556.5 30308.2 lineto
58725.2 30308.2 lineto
58837.7 30252 lineto
58893.9 30195.7 lineto
58950.2 30083.2 lineto
58950.2 29802 lineto
58893.9 29689.5 lineto
58837.7 29633.3 lineto
58725.2 29577.1 lineto
58387.8 29577.1 lineto
58275.3 29633.3 lineto
58219 29689.5 lineto
stroke
newpath
60018.8 30758.2 moveto
59456.4 30758.2 lineto
59400.1 30195.7 lineto
59456.4 30252 lineto
59568.9 30308.2 lineto
59850.1 30308.2 lineto
59962.6 30252 lineto
60018.8 30195.7 lineto
60075 30083.2 lineto
60075 29802 lineto
60018.8 29689.5 lineto
59962.6 29633.3 lineto
59850.1 29577.1 lineto
59568.9 29577.1 lineto
59456.4 29633.3 lineto
59400.1 29689.5 lineto
stroke
newpath
61087.4 30364.5 moveto
61087.4 29577.1 lineto
stroke
newpath
60806.2 30814.4 moveto
60525 29970.8 lineto
61256.1 29970.8 lineto
stroke
newpath
61649.8 30758.2 moveto
61649.8 30533.2 lineto
stroke
newpath
62099.8 30758.2 moveto
62099.8 30533.2 lineto
stroke
newpath
63843.3 29127.1 moveto
63787.1 29183.4 lineto
63674.6 29352.1 lineto
63618.3 29464.6 lineto
63562.1 29633.3 lineto
63505.9 29914.5 lineto
63505.9 30139.5 lineto
63562.1 30420.7 lineto
63618.3 30589.4 lineto
63674.6 30701.9 lineto
63787.1 30870.7 lineto
63843.3 30926.9 lineto
stroke
newpath
64180.8 30758.2 moveto
64911.9 30758.2 lineto
64518.2 30308.2 lineto
64687 30308.2 lineto
64799.5 30252 lineto
64855.7 30195.7 lineto
64911.9 30083.2 lineto
64911.9 29802 lineto
64855.7 29689.5 lineto
64799.5 29633.3 lineto
64687 29577.1 lineto
64349.5 29577.1 lineto
64237 29633.3 lineto
64180.8 29689.5 lineto
stroke
newpath
65361.9 30645.7 moveto
65418.1 30701.9 lineto
65530.6 30758.2 lineto
65811.8 30758.2 lineto
65924.3 30701.9 lineto
65980.6 30645.7 lineto
66036.8 30533.2 lineto
66036.8 30420.7 lineto
65980.6 30252 lineto
65305.6 29577.1 lineto
66036.8 29577.1 lineto
stroke
newpath
67442.9 29577.1 moveto
67442.9 30758.2 lineto
stroke
newpath
67949.1 29577.1 moveto
67949.1 30195.7 lineto
67892.8 30308.2 lineto
67780.3 30364.5 lineto
67611.6 30364.5 lineto
67499.1 30308.2 lineto
67442.9 30252 lineto
stroke
newpath
68680.2 29577.1 moveto
68567.7 29633.3 lineto
68511.5 29689.5 lineto
68455.2 29802 lineto
68455.2 30139.5 lineto
68511.5 30252 lineto
68567.7 30308.2 lineto
68680.2 30364.5 lineto
68848.9 30364.5 lineto
68961.4 30308.2 lineto
69017.7 30252 lineto
69073.9 30139.5 lineto
69073.9 29802 lineto
69017.7 29689.5 lineto
68961.4 29633.3 lineto
68848.9 29577.1 lineto
68680.2 29577.1 lineto
stroke
newpath
69748.8 29577.1 moveto
69636.3 29633.3 lineto
69580.1 29745.8 lineto
69580.1 30758.2 lineto
stroke
newpath
70648.7 29633.3 moveto
70536.2 29577.1 lineto
70311.3 29577.1 lineto
70198.8 29633.3 lineto
70142.5 29745.8 lineto
70142.5 30195.7 lineto
70198.8 30308.2 lineto
70311.3 30364.5 lineto
70536.2 30364.5 lineto
70648.7 30308.2 lineto
70705 30195.7 lineto
70705 30083.2 lineto
70142.5 29970.8 lineto
stroke
newpath
71154.9 29633.3 moveto
71267.4 29577.1 lineto
71492.4 29577.1 lineto
71604.9 29633.3 lineto
71661.1 29745.8 lineto
71661.1 29802 lineto
71604.9 29914.5 lineto
71492.4 29970.8 lineto
71323.6 29970.8 lineto
71211.2 30027 lineto
71154.9 30139.5 lineto
71154.9 30195.7 lineto
71211.2 30308.2 lineto
71323.6 30364.5 lineto
71492.4 30364.5 lineto
71604.9 30308.2 lineto
stroke
newpath
72054.8 29127.1 moveto
72111 29183.4 lineto
72223.5 29352.1 lineto
72279.8 29464.6 lineto
72336 29633.3 lineto
72392.3 29914.5 lineto
72392.3 30139.5 lineto
72336 30420.7 lineto
72279.8 30589.4 lineto
72223.5 30701.9 lineto
72111 30870.7 lineto
72054.8 30926.9 lineto
stroke
newpath
43091.9 28428.8 moveto
43091.9 28675.8 lineto
42845 28675.8 lineto
42845 28428.8 lineto
43091.9 28428.8 lineto
poly0
0 0 0 setrgbcolor
0 0 0 setrgbcolor
newpath
44889.4 28018 moveto
44214.5 28018 lineto
stroke
newpath
44552 28018 moveto
44552 29199.1 lineto
44439.5 29030.4 lineto
44327 28917.9 lineto
44214.5 28861.7 lineto
stroke
newpath
45395.6 28130.5 moveto
45451.9 28074.3 lineto
45395.6 28018 lineto
45339.4 28074.3 lineto
45395.6 28130.5 lineto
45395.6 28018 lineto
stroke
newpath
46183 29199.1 moveto
46295.5 29199.1 lineto
46408 29142.9 lineto
46464.2 29086.6 lineto
46520.5 28974.1 lineto
46576.7 28749.2 lineto
46576.7 28468 lineto
46520.5 28243 lineto
46464.2 28130.5 lineto
46408 28074.3 lineto
46295.5 28018 lineto
46183 28018 lineto
46070.5 28074.3 lineto
46014.3 28130.5 lineto
45958.1 28243 lineto
45901.8 28468 lineto
45901.8 28749.2 lineto
45958.1 28974.1 lineto
46014.3 29086.6 lineto
46070.5 29142.9 lineto
46183 29199.1 lineto
stroke
newpath
47307.9 29199.1 moveto
47420.4 29199.1 lineto
47532.9 29142.9 lineto
47589.1 29086.6 lineto
47645.3 28974.1 lineto
47701.6 28749.2 lineto
47701.6 28468 lineto
47645.3 28243 lineto
47589.1 28130.5 lineto
47532.9 28074.3 lineto
47420.4 28018 lineto
47307.9 28018 lineto
47195.4 28074.3 lineto
47139.2 28130.5 lineto
47082.9 28243 lineto
47026.7 28468 lineto
47026.7 28749.2 lineto
47082.9 28974.1 lineto
47139.2 29086.6 lineto
47195.4 29142.9 lineto
47307.9 29199.1 lineto
stroke
newpath
48432.7 29199.1 moveto
48545.2 29199.1 lineto
48657.7 29142.9 lineto
48714 29086.6 lineto
48770.2 28974.1 lineto
48826.4 28749.2 lineto
48826.4 28468 lineto
48770.2 28243 lineto
48714 28130.5 lineto
48657.7 28074.3 lineto
48545.2 28018 lineto
48432.7 28018 lineto
48320.3 28074.3 lineto
48264 28130.5 lineto
48207.8 28243 lineto
48151.5 28468 lineto
48151.5 28749.2 lineto
48207.8 28974.1 lineto
48264 29086.6 lineto
48320.3 29142.9 lineto
48432.7 29199.1 lineto
stroke
newpath
49332.6 28018 moveto
49332.6 28805.4 lineto
stroke
newpath
49332.6 28692.9 moveto
49388.9 28749.2 lineto
49501.4 28805.4 lineto
49670.1 28805.4 lineto
49782.6 28749.2 lineto
49838.8 28636.7 lineto
49838.8 28018 lineto
stroke
newpath
49838.8 28636.7 moveto
49895.1 28749.2 lineto
50007.5 28805.4 lineto
50176.3 28805.4 lineto
50288.8 28749.2 lineto
50345 28636.7 lineto
50345 28018 lineto
stroke
newpath
50907.4 28018 moveto
50907.4 28805.4 lineto
stroke
newpath
50907.4 28692.9 moveto
50963.7 28749.2 lineto
51076.2 28805.4 lineto
51244.9 28805.4 lineto
51357.4 28749.2 lineto
51413.6 28636.7 lineto
51413.6 28018 lineto
stroke
newpath
51413.6 28636.7 moveto
51469.9 28749.2 lineto
51582.4 28805.4 lineto
51751.1 28805.4 lineto
51863.6 28749.2 lineto
51919.8 28636.7 lineto
51919.8 28018 lineto
stroke
newpath
54225.8 29255.4 moveto
53213.4 27736.8 lineto
stroke
newpath
55744.3 29199.1 moveto
55856.8 29199.1 lineto
55969.3 29142.9 lineto
56025.5 29086.6 lineto
56081.8 28974.1 lineto
56138 28749.2 lineto
56138 28468 lineto
56081.8 28243 lineto
56025.5 28130.5 lineto
55969.3 28074.3 lineto
55856.8 28018 lineto
55744.3 28018 lineto
55631.8 28074.3 lineto
55575.6 28130.5 lineto
55519.4 28243 lineto
55463.1 28468 lineto
55463.1 28749.2 lineto
55519.4 28974.1 lineto
55575.6 29086.6 lineto
55631.8 29142.9 lineto
55744.3 29199.1 lineto
stroke
newpath
56644.2 28130.5 moveto
56700.5 28074.3 lineto
56644.2 28018 lineto
56588 28074.3 lineto
56644.2 28130.5 lineto
56644.2 28018 lineto
stroke
newpath
57431.6 29199.1 moveto
57544.1 29199.1 lineto
57656.6 29142.9 lineto
57712.8 29086.6 lineto
57769.1 28974.1 lineto
57825.3 28749.2 lineto
57825.3 28468 lineto
57769.1 28243 lineto
57712.8 28130.5 lineto
57656.6 28074.3 lineto
57544.1 28018 lineto
57431.6 28018 lineto
57319.1 28074.3 lineto
57262.9 28130.5 lineto
57206.7 28243 lineto
57150.4 28468 lineto
57150.4 28749.2 lineto
57206.7 28974.1 lineto
57262.9 29086.6 lineto
57319.1 29142.9 lineto
57431.6 29199.1 lineto
stroke
newpath
58219 29199.1 moveto
58950.2 29199.1 lineto
58556.5 28749.2 lineto
58725.2 28749.2 lineto
58837.7 28692.9 lineto
58893.9 28636.7 lineto
58950.2 28524.2 lineto
58950.2 28243 lineto
58893.9 28130.5 lineto
58837.7 28074.3 lineto
58725.2 28018 lineto
58387.8 28018 lineto
58275.3 28074.3 lineto
58219 28130.5 lineto
stroke
newpath
59512.6 28018 moveto
59737.6 28018 lineto
59850.1 28074.3 lineto
59906.3 28130.5 lineto
60018.8 28299.2 lineto
60075 28524.2 lineto
60075 28974.1 lineto
60018.8 29086.6 lineto
59962.6 29142.9 lineto
59850.1 29199.1 lineto
59625.1 29199.1 lineto
59512.6 29142.9 lineto
59456.4 29086.6 lineto
59400.1 28974.1 lineto
59400.1 28692.9 lineto
59456.4 28580.4 lineto
59512.6 28524.2 lineto
59625.1 28468 lineto
59850.1 28468 lineto
59962.6 28524.2 lineto
60018.8 28580.4 lineto
60075 28692.9 lineto
stroke
newpath
61087.4 28805.4 moveto
61087.4 28018 lineto
stroke
newpath
60806.2 29255.4 moveto
60525 28411.7 lineto
61256.1 28411.7 lineto
stroke
newpath
61649.8 29199.1 moveto
61649.8 28974.1 lineto
stroke
newpath
62099.8 29199.1 moveto
62099.8 28974.1 lineto
stroke
newpath
63843.3 27568.1 moveto
63787.1 27624.3 lineto
63674.6 27793 lineto
63618.3 27905.5 lineto
63562.1 28074.3 lineto
63505.9 28355.5 lineto
63505.9 28580.4 lineto
63562.1 28861.7 lineto
63618.3 29030.4 lineto
63674.6 29142.9 lineto
63787.1 29311.6 lineto
63843.3 29367.8 lineto
stroke
newpath
64462 28692.9 moveto
64349.5 28749.2 lineto
64293.3 28805.4 lineto
64237 28917.9 lineto
64237 28974.1 lineto
64293.3 29086.6 lineto
64349.5 29142.9 lineto
64462 29199.1 lineto
64687 29199.1 lineto
64799.5 29142.9 lineto
64855.7 29086.6 lineto
64911.9 28974.1 lineto
64911.9 28917.9 lineto
64855.7 28805.4 lineto
64799.5 28749.2 lineto
64687 28692.9 lineto
64462 28692.9 lineto
64349.5 28636.7 lineto
64293.3 28580.4 lineto
64237 28468 lineto
64237 28243 lineto
64293.3 28130.5 lineto
64349.5 28074.3 lineto
64462 28018 lineto
64687 28018 lineto
64799.5 28074.3 lineto
64855.7 28130.5 lineto
64911.9 28243 lineto
64911.9 28468 lineto
64855.7 28580.4 lineto
64799.5 28636.7 lineto
64687 28692.9 lineto
stroke
newpath
65924.3 28805.4 moveto
65924.3 28018 lineto
stroke
newpath
65643.1 29255.4 moveto
65361.9 28411.7 lineto
66093 28411.7 lineto
stroke
newpath
67442.9 28018 moveto
67442.9 29199.1 lineto
stroke
newpath
67949.1 28018 moveto
67949.1 28636.7 lineto
67892.8 28749.2 lineto
67780.3 28805.4 lineto
67611.6 28805.4 lineto
67499.1 28749.2 lineto
67442.9 28692.9 lineto
stroke
newpath
68680.2 28018 moveto
68567.7 28074.3 lineto
68511.5 28130.5 lineto
68455.2 28243 lineto
68455.2 28580.4 lineto
68511.5 28692.9 lineto
68567.7 28749.2 lineto
68680.2 28805.4 lineto
68848.9 28805.4 lineto
68961.4 28749.2 lineto
69017.7 28692.9 lineto
69073.9 28580.4 lineto
69073.9 28243 lineto
69017.7 28130.5 lineto
68961.4 28074.3 lineto
68848.9 28018 lineto
68680.2 28018 lineto
stroke
newpath
69748.8 28018 moveto
69636.3 28074.3 lineto
69580.1 28186.7 lineto
69580.1 29199.1 lineto
stroke
newpath
70648.7 28074.3 moveto
70536.2 28018 lineto
70311.3 28018 lineto
70198.8 28074.3 lineto
70142.5 28186.7 lineto
70142.5 28636.7 lineto
70198.8 28749.2 lineto
70311.3 28805.4 lineto
70536.2 28805.4 lineto
70648.7 28749.2 lineto
70705 28636.7 lineto
70705 28524.2 lineto
70142.5 28411.7 lineto
stroke
newpath
71154.9 28074.3 moveto
71267.4 28018 lineto
71492.4 28018 lineto
71604.9 28074.3 lineto
71661.1 28186.7 lineto
71661.1 28243 lineto
71604.9 28355.5 lineto
71492.4 28411.7 lineto
71323.6 28411.7 lineto
71211.2 28468 lineto
71154.9 28580.4 lineto
71154.9 28636.7 lineto
71211.2 28749.2 lineto
71323.6 28805.4 lineto
71492.4 28805.4 lineto
71604.9 28749.2 lineto
stroke
newpath
72054.8 27568.1 moveto
72111 27624.3 lineto
72223.5 27793 lineto
72279.8 27905.5 lineto
72336 28074.3 lineto
72392.3 28355.5 lineto
72392.3 28580.4 lineto
72336 28861.7 lineto
72279.8 29030.4 lineto
72223.5 29142.9 lineto
72111 29311.6 lineto
72054.8 29367.8 lineto
stroke
showpage
grestore
%%EOF
