%!PS-Adobe-3.0
%%Creator: PCBNEW
%%CreationDate: Thu Oct 06 00:13:36 2022
%%Title: C:\Users\Jacob\Documents\ece-445-project-cyclist-assist-system\dashboard_pcb\gerber_445\dashboard_pcb-NPTH-drl_map.ps
%%Pages: 1
%%PageOrder: Ascend
%%BoundingBox: 0 0 596 842
%%DocumentMedia: A4 595 842 0 () ()
%%Orientation: Landscape
%%EndComments
%%BeginProlog
/line { newpath moveto lineto stroke } bind def
/cir0 { newpath 0 360 arc stroke } bind def
/cir1 { newpath 0 360 arc gsave fill grestore stroke } bind def
/cir2 { newpath 0 360 arc gsave fill grestore stroke } bind def
/arc0 { newpath arc stroke } bind def
/arc1 { newpath 4 index 4 index moveto arc closepath gsave fill
    grestore stroke } bind def
/arc2 { newpath 4 index 4 index moveto arc closepath gsave fill
    grestore stroke } bind def
/poly0 { stroke } bind def
/poly1 { closepath gsave fill grestore stroke } bind def
/poly2 { closepath gsave fill grestore stroke } bind def
/rect0 { rectstroke } bind def
/rect1 { rectfill } bind def
/rect2 { rectfill } bind def
/linemode0 { 0 setlinecap 0 setlinejoin 0 setlinewidth } bind def
/linemode1 { 1 setlinecap 1 setlinejoin } bind def
/dashedline { [200] 100 setdash } bind def
/solidline { [] 0 setdash } bind def
/phantomshow { moveto
    /KicadFont findfont 0.000001 scalefont setfont
    show } bind def
/textshow { gsave
    findfont exch scalefont setfont concat 1 scale 0 0 moveto show
    } bind def
/reencodefont {
  findfont dup length dict begin
  { 1 index /FID ne
    { def }
    { pop pop } ifelse
  } forall
  /Encoding ISOLatin1Encoding def
  currentdict
  end } bind def
/KicadFont /Helvetica reencodefont definefont pop
/KicadFont-Bold /Helvetica-Bold reencodefont definefont pop
/KicadFont-Oblique /Helvetica-Oblique reencodefont definefont pop
/KicadFont-BoldOblique /Helvetica-BoldOblique reencodefont definefont pop
%%EndProlog
%%Page: 1 1
%%BeginPageSetup
gsave
0.0072 0.0072 scale
linemode1
82680 0 translate 90 rotate
44.3607 setlinewidth
%%EndPageSetup
0 0 0 setrgbcolor
34.9297 setlinewidth
newpath
73769.4 78725.5 moveto
73769.4 37026.5 lineto
stroke
0 0 0 setrgbcolor
newpath
43160.6 78725.5 moveto
73769.4 78725.5 lineto
stroke
0 0 0 setrgbcolor
newpath
43160.6 37026.5 moveto
43160.6 78725.5 lineto
stroke
0 0 0 setrgbcolor
newpath
73769.4 37026.5 moveto
43160.6 37026.5 lineto
stroke
78.7399 setlinewidth
newpath
44597.9 71787.4 moveto
45715.7 70669.7 lineto
stroke
newpath
45715.7 71787.4 moveto
44597.9 70669.7 lineto
stroke
newpath
44597.9 39359.8 moveto
45715.7 38242 lineto
stroke
newpath
45715.7 39359.8 moveto
44597.9 38242 lineto
stroke
newpath
71214.3 77288.2 moveto
72332.1 76170.4 lineto
stroke
newpath
72332.1 77288.2 moveto
71214.3 76170.4 lineto
stroke
newpath
71436.1 39359.8 moveto
72553.9 38242 lineto
stroke
newpath
72553.9 39359.8 moveto
71436.1 38242 lineto
stroke
118.11 setlinewidth
0 0 0 setrgbcolor
0 0 0 setrgbcolor
newpath
44270.8 35175.5 moveto
44270.8 36356.6 lineto
44552 36356.6 lineto
44720.7 36300.3 lineto
44833.2 36187.9 lineto
44889.4 36075.4 lineto
44945.7 35850.4 lineto
44945.7 35681.7 lineto
44889.4 35456.7 lineto
44833.2 35344.2 lineto
44720.7 35231.7 lineto
44552 35175.5 lineto
44270.8 35175.5 lineto
stroke
newpath
45451.9 35175.5 moveto
45451.9 35962.9 lineto
stroke
newpath
45451.9 35737.9 moveto
45508.1 35850.4 lineto
45564.4 35906.6 lineto
45676.8 35962.9 lineto
45789.3 35962.9 lineto
stroke
newpath
46183 35175.5 moveto
46183 35962.9 lineto
stroke
newpath
46183 36356.6 moveto
46126.8 36300.3 lineto
46183 36244.1 lineto
46239.3 36300.3 lineto
46183 36356.6 lineto
46183 36244.1 lineto
stroke
newpath
46914.2 35175.5 moveto
46801.7 35231.7 lineto
46745.5 35344.2 lineto
46745.5 36356.6 lineto
stroke
newpath
47532.9 35175.5 moveto
47420.4 35231.7 lineto
47364.1 35344.2 lineto
47364.1 36356.6 lineto
stroke
newpath
48882.7 35175.5 moveto
48882.7 36356.6 lineto
49276.4 35512.9 lineto
49670.1 36356.6 lineto
49670.1 35175.5 lineto
stroke
newpath
50738.7 35175.5 moveto
50738.7 35794.2 lineto
50682.5 35906.6 lineto
50570 35962.9 lineto
50345 35962.9 lineto
50232.5 35906.6 lineto
stroke
newpath
50738.7 35231.7 moveto
50626.2 35175.5 lineto
50345 35175.5 lineto
50232.5 35231.7 lineto
50176.3 35344.2 lineto
50176.3 35456.7 lineto
50232.5 35569.2 lineto
50345 35625.4 lineto
50626.2 35625.4 lineto
50738.7 35681.7 lineto
stroke
newpath
51301.1 35962.9 moveto
51301.1 34781.8 lineto
stroke
newpath
51301.1 35906.6 moveto
51413.6 35962.9 lineto
51638.6 35962.9 lineto
51751.1 35906.6 lineto
51807.3 35850.4 lineto
51863.6 35737.9 lineto
51863.6 35400.5 lineto
51807.3 35288 lineto
51751.1 35231.7 lineto
51638.6 35175.5 lineto
51413.6 35175.5 lineto
51301.1 35231.7 lineto
stroke
newpath
52369.8 35288 moveto
52426 35231.7 lineto
52369.8 35175.5 lineto
52313.5 35231.7 lineto
52369.8 35288 lineto
52369.8 35175.5 lineto
stroke
newpath
52369.8 35906.6 moveto
52426 35850.4 lineto
52369.8 35794.2 lineto
52313.5 35850.4 lineto
52369.8 35906.6 lineto
52369.8 35794.2 lineto
stroke
newpath
42025.3 33788.4 moveto
43143.1 32670.6 lineto
stroke
newpath
43143.1 33788.4 moveto
42025.3 32670.6 lineto
stroke
0 0 0 setrgbcolor
0 0 0 setrgbcolor
newpath
44158.3 33876.3 moveto
44889.4 33876.3 lineto
44495.7 33426.3 lineto
44664.5 33426.3 lineto
44777 33370.1 lineto
44833.2 33313.8 lineto
44889.4 33201.4 lineto
44889.4 32920.1 lineto
44833.2 32807.7 lineto
44777 32751.4 lineto
44664.5 32695.2 lineto
44327 32695.2 lineto
44214.5 32751.4 lineto
44158.3 32807.7 lineto
stroke
newpath
45395.6 32807.7 moveto
45451.9 32751.4 lineto
45395.6 32695.2 lineto
45339.4 32751.4 lineto
45395.6 32807.7 lineto
45395.6 32695.2 lineto
stroke
newpath
45901.8 33763.8 moveto
45958.1 33820 lineto
46070.5 33876.3 lineto
46351.8 33876.3 lineto
46464.2 33820 lineto
46520.5 33763.8 lineto
46576.7 33651.3 lineto
46576.7 33538.8 lineto
46520.5 33370.1 lineto
45845.6 32695.2 lineto
46576.7 32695.2 lineto
stroke
newpath
47307.9 33876.3 moveto
47420.4 33876.3 lineto
47532.9 33820 lineto
47589.1 33763.8 lineto
47645.3 33651.3 lineto
47701.6 33426.3 lineto
47701.6 33145.1 lineto
47645.3 32920.1 lineto
47589.1 32807.7 lineto
47532.9 32751.4 lineto
47420.4 32695.2 lineto
47307.9 32695.2 lineto
47195.4 32751.4 lineto
47139.2 32807.7 lineto
47082.9 32920.1 lineto
47026.7 33145.1 lineto
47026.7 33426.3 lineto
47082.9 33651.3 lineto
47139.2 33763.8 lineto
47195.4 33820 lineto
47307.9 33876.3 lineto
stroke
newpath
48432.7 33876.3 moveto
48545.2 33876.3 lineto
48657.7 33820 lineto
48714 33763.8 lineto
48770.2 33651.3 lineto
48826.4 33426.3 lineto
48826.4 33145.1 lineto
48770.2 32920.1 lineto
48714 32807.7 lineto
48657.7 32751.4 lineto
48545.2 32695.2 lineto
48432.7 32695.2 lineto
48320.3 32751.4 lineto
48264 32807.7 lineto
48207.8 32920.1 lineto
48151.5 33145.1 lineto
48151.5 33426.3 lineto
48207.8 33651.3 lineto
48264 33763.8 lineto
48320.3 33820 lineto
48432.7 33876.3 lineto
stroke
newpath
49332.6 32695.2 moveto
49332.6 33482.6 lineto
stroke
newpath
49332.6 33370.1 moveto
49388.9 33426.3 lineto
49501.4 33482.6 lineto
49670.1 33482.6 lineto
49782.6 33426.3 lineto
49838.8 33313.8 lineto
49838.8 32695.2 lineto
stroke
newpath
49838.8 33313.8 moveto
49895.1 33426.3 lineto
50007.5 33482.6 lineto
50176.3 33482.6 lineto
50288.8 33426.3 lineto
50345 33313.8 lineto
50345 32695.2 lineto
stroke
newpath
50907.4 32695.2 moveto
50907.4 33482.6 lineto
stroke
newpath
50907.4 33370.1 moveto
50963.7 33426.3 lineto
51076.2 33482.6 lineto
51244.9 33482.6 lineto
51357.4 33426.3 lineto
51413.6 33313.8 lineto
51413.6 32695.2 lineto
stroke
newpath
51413.6 33313.8 moveto
51469.9 33426.3 lineto
51582.4 33482.6 lineto
51751.1 33482.6 lineto
51863.6 33426.3 lineto
51919.8 33313.8 lineto
51919.8 32695.2 lineto
stroke
newpath
54225.8 33932.5 moveto
53213.4 32414 lineto
stroke
newpath
55744.3 33876.3 moveto
55856.8 33876.3 lineto
55969.3 33820 lineto
56025.5 33763.8 lineto
56081.8 33651.3 lineto
56138 33426.3 lineto
56138 33145.1 lineto
56081.8 32920.1 lineto
56025.5 32807.7 lineto
55969.3 32751.4 lineto
55856.8 32695.2 lineto
55744.3 32695.2 lineto
55631.8 32751.4 lineto
55575.6 32807.7 lineto
55519.4 32920.1 lineto
55463.1 33145.1 lineto
55463.1 33426.3 lineto
55519.4 33651.3 lineto
55575.6 33763.8 lineto
55631.8 33820 lineto
55744.3 33876.3 lineto
stroke
newpath
56644.2 32807.7 moveto
56700.5 32751.4 lineto
56644.2 32695.2 lineto
56588 32751.4 lineto
56644.2 32807.7 lineto
56644.2 32695.2 lineto
stroke
newpath
57825.3 32695.2 moveto
57150.4 32695.2 lineto
stroke
newpath
57487.9 32695.2 moveto
57487.9 33876.3 lineto
57375.4 33707.5 lineto
57262.9 33595.1 lineto
57150.4 33538.8 lineto
stroke
newpath
58275.3 33763.8 moveto
58331.5 33820 lineto
58444 33876.3 lineto
58725.2 33876.3 lineto
58837.7 33820 lineto
58893.9 33763.8 lineto
58950.2 33651.3 lineto
58950.2 33538.8 lineto
58893.9 33370.1 lineto
58219 32695.2 lineto
58950.2 32695.2 lineto
stroke
newpath
59962.6 33876.3 moveto
59737.6 33876.3 lineto
59625.1 33820 lineto
59568.9 33763.8 lineto
59456.4 33595.1 lineto
59400.1 33370.1 lineto
59400.1 32920.1 lineto
59456.4 32807.7 lineto
59512.6 32751.4 lineto
59625.1 32695.2 lineto
59850.1 32695.2 lineto
59962.6 32751.4 lineto
60018.8 32807.7 lineto
60075 32920.1 lineto
60075 33201.4 lineto
60018.8 33313.8 lineto
59962.6 33370.1 lineto
59850.1 33426.3 lineto
59625.1 33426.3 lineto
59512.6 33370.1 lineto
59456.4 33313.8 lineto
59400.1 33201.4 lineto
stroke
newpath
60806.2 33876.3 moveto
60918.7 33876.3 lineto
61031.2 33820 lineto
61087.4 33763.8 lineto
61143.7 33651.3 lineto
61199.9 33426.3 lineto
61199.9 33145.1 lineto
61143.7 32920.1 lineto
61087.4 32807.7 lineto
61031.2 32751.4 lineto
60918.7 32695.2 lineto
60806.2 32695.2 lineto
60693.7 32751.4 lineto
60637.5 32807.7 lineto
60581.2 32920.1 lineto
60525 33145.1 lineto
60525 33426.3 lineto
60581.2 33651.3 lineto
60637.5 33763.8 lineto
60693.7 33820 lineto
60806.2 33876.3 lineto
stroke
newpath
61649.8 33876.3 moveto
61649.8 33651.3 lineto
stroke
newpath
62099.8 33876.3 moveto
62099.8 33651.3 lineto
stroke
newpath
63843.3 32245.2 moveto
63787.1 32301.5 lineto
63674.6 32470.2 lineto
63618.3 32582.7 lineto
63562.1 32751.4 lineto
63505.9 33032.6 lineto
63505.9 33257.6 lineto
63562.1 33538.8 lineto
63618.3 33707.5 lineto
63674.6 33820 lineto
63787.1 33988.8 lineto
63843.3 34045 lineto
stroke
newpath
64799.5 33482.6 moveto
64799.5 32695.2 lineto
stroke
newpath
64518.2 33932.5 moveto
64237 33088.9 lineto
64968.2 33088.9 lineto
stroke
newpath
66318 32695.2 moveto
66318 33876.3 lineto
stroke
newpath
66824.2 32695.2 moveto
66824.2 33313.8 lineto
66768 33426.3 lineto
66655.5 33482.6 lineto
66486.7 33482.6 lineto
66374.3 33426.3 lineto
66318 33370.1 lineto
stroke
newpath
67555.4 32695.2 moveto
67442.9 32751.4 lineto
67386.6 32807.7 lineto
67330.4 32920.1 lineto
67330.4 33257.6 lineto
67386.6 33370.1 lineto
67442.9 33426.3 lineto
67555.4 33482.6 lineto
67724.1 33482.6 lineto
67836.6 33426.3 lineto
67892.8 33370.1 lineto
67949.1 33257.6 lineto
67949.1 32920.1 lineto
67892.8 32807.7 lineto
67836.6 32751.4 lineto
67724.1 32695.2 lineto
67555.4 32695.2 lineto
stroke
newpath
68624 32695.2 moveto
68511.5 32751.4 lineto
68455.2 32863.9 lineto
68455.2 33876.3 lineto
stroke
newpath
69523.9 32751.4 moveto
69411.4 32695.2 lineto
69186.4 32695.2 lineto
69073.9 32751.4 lineto
69017.7 32863.9 lineto
69017.7 33313.8 lineto
69073.9 33426.3 lineto
69186.4 33482.6 lineto
69411.4 33482.6 lineto
69523.9 33426.3 lineto
69580.1 33313.8 lineto
69580.1 33201.4 lineto
69017.7 33088.9 lineto
stroke
newpath
70030 32751.4 moveto
70142.5 32695.2 lineto
70367.5 32695.2 lineto
70480 32751.4 lineto
70536.2 32863.9 lineto
70536.2 32920.1 lineto
70480 33032.6 lineto
70367.5 33088.9 lineto
70198.8 33088.9 lineto
70086.3 33145.1 lineto
70030 33257.6 lineto
70030 33313.8 lineto
70086.3 33426.3 lineto
70198.8 33482.6 lineto
70367.5 33482.6 lineto
70480 33426.3 lineto
stroke
newpath
70929.9 32245.2 moveto
70986.2 32301.5 lineto
71098.7 32470.2 lineto
71154.9 32582.7 lineto
71211.2 32751.4 lineto
71267.4 33032.6 lineto
71267.4 33257.6 lineto
71211.2 33538.8 lineto
71154.9 33707.5 lineto
71098.7 33820 lineto
70986.2 33988.8 lineto
70929.9 34045 lineto
stroke
newpath
73067.2 32245.2 moveto
73010.9 32301.5 lineto
72898.4 32470.2 lineto
72842.2 32582.7 lineto
72786 32751.4 lineto
72729.7 33032.6 lineto
72729.7 33257.6 lineto
72786 33538.8 lineto
72842.2 33707.5 lineto
72898.4 33820 lineto
73010.9 33988.8 lineto
73067.2 34045 lineto
stroke
newpath
73517.1 33482.6 moveto
73517.1 32695.2 lineto
stroke
newpath
73517.1 33370.1 moveto
73573.4 33426.3 lineto
73685.8 33482.6 lineto
73854.6 33482.6 lineto
73967.1 33426.3 lineto
74023.3 33313.8 lineto
74023.3 32695.2 lineto
stroke
newpath
74754.5 32695.2 moveto
74642 32751.4 lineto
74585.7 32807.7 lineto
74529.5 32920.1 lineto
74529.5 33257.6 lineto
74585.7 33370.1 lineto
74642 33426.3 lineto
74754.5 33482.6 lineto
74923.2 33482.6 lineto
75035.7 33426.3 lineto
75091.9 33370.1 lineto
75148.2 33257.6 lineto
75148.2 32920.1 lineto
75091.9 32807.7 lineto
75035.7 32751.4 lineto
74923.2 32695.2 lineto
74754.5 32695.2 lineto
stroke
newpath
75485.6 33482.6 moveto
75935.6 33482.6 lineto
stroke
newpath
75654.3 33876.3 moveto
75654.3 32863.9 lineto
75710.6 32751.4 lineto
75823.1 32695.2 lineto
75935.6 32695.2 lineto
stroke
newpath
77229.1 33482.6 moveto
77229.1 32301.5 lineto
stroke
newpath
77229.1 33426.3 moveto
77341.6 33482.6 lineto
77566.6 33482.6 lineto
77679.1 33426.3 lineto
77735.3 33370.1 lineto
77791.6 33257.6 lineto
77791.6 32920.1 lineto
77735.3 32807.7 lineto
77679.1 32751.4 lineto
77566.6 32695.2 lineto
77341.6 32695.2 lineto
77229.1 32751.4 lineto
stroke
newpath
78466.5 32695.2 moveto
78354 32751.4 lineto
78297.8 32863.9 lineto
78297.8 33876.3 lineto
stroke
newpath
79422.6 32695.2 moveto
79422.6 33313.8 lineto
79366.4 33426.3 lineto
79253.9 33482.6 lineto
79028.9 33482.6 lineto
78916.4 33426.3 lineto
stroke
newpath
79422.6 32751.4 moveto
79310.1 32695.2 lineto
79028.9 32695.2 lineto
78916.4 32751.4 lineto
78860.2 32863.9 lineto
78860.2 32976.4 lineto
78916.4 33088.9 lineto
79028.9 33145.1 lineto
79310.1 33145.1 lineto
79422.6 33201.4 lineto
stroke
newpath
79816.3 33482.6 moveto
80266.3 33482.6 lineto
stroke
newpath
79985.1 33876.3 moveto
79985.1 32863.9 lineto
80041.3 32751.4 lineto
80153.8 32695.2 lineto
80266.3 32695.2 lineto
stroke
newpath
81109.9 32751.4 moveto
80997.4 32695.2 lineto
80772.5 32695.2 lineto
80660 32751.4 lineto
80603.7 32863.9 lineto
80603.7 33313.8 lineto
80660 33426.3 lineto
80772.5 33482.6 lineto
80997.4 33482.6 lineto
81109.9 33426.3 lineto
81166.2 33313.8 lineto
81166.2 33201.4 lineto
80603.7 33088.9 lineto
stroke
newpath
82178.5 32695.2 moveto
82178.5 33876.3 lineto
stroke
newpath
82178.5 32751.4 moveto
82066 32695.2 lineto
81841.1 32695.2 lineto
81728.6 32751.4 lineto
81672.3 32807.7 lineto
81616.1 32920.1 lineto
81616.1 33257.6 lineto
81672.3 33370.1 lineto
81728.6 33426.3 lineto
81841.1 33482.6 lineto
82066 33482.6 lineto
82178.5 33426.3 lineto
stroke
newpath
82628.5 32245.2 moveto
82684.7 32301.5 lineto
82797.2 32470.2 lineto
82853.4 32582.7 lineto
82909.7 32751.4 lineto
82965.9 33032.6 lineto
82965.9 33257.6 lineto
82909.7 33538.8 lineto
82853.4 33707.5 lineto
82797.2 33820 lineto
82684.7 33988.8 lineto
82628.5 34045 lineto
stroke
showpage
grestore
%%EOF
